{
  "entities": {
    "Q1192316": {
      "pageid": 1136494,
      "ns": 0,
      "title": "Q1192316",
      "lastrevid": 1774548242,
      "modified": "2022-11-18T20:55:10Z",
      "type": "item",
      "id": "Q1192316",
      "labels": {
        "zh-hans": {
          "language": "zh-hans",
          "value": "人月神话"
        },
        "zh-hant": {
          "language": "zh-hant",
          "value": "人月神話"
        },
        "zh-hk": {
          "language": "zh-hk",
          "value": "人月神話"
        },
        "pt": {
          "language": "pt",
          "value": "The Mythical Man-Month"
        },
        "ja": {
          "language": "ja",
          "value": "人月の神話"
        },
        "vi": {
          "language": "vi",
          "value": "The Mythical Man-Month"
        },
        "ko": {
          "language": "ko",
          "value": "맨먼스 미신"
        },
        "fr": {
          "language": "fr",
          "value": "Le Mythique homme-mois"
        },
        "ru": {
          "language": "ru",
          "value": "Мифический человеко-месяц"
        },
        "en": {
          "language": "en",
          "value": "The Mythical Man-Month"
        },
        "es": {
          "language": "es",
          "value": "El Mítico Hombre-Mes"
        },
        "lv": {
          "language": "lv",
          "value": "Mītiskais cilvēkmēnesis"
        },
        "uk": {
          "language": "uk",
          "value": "Міфічний людино-місяць"
        },
        "da": {
          "language": "da",
          "value": "The Mythical Man-Month"
        },
        "zh": {
          "language": "zh",
          "value": "人月神话"
        },
        "de": {
          "language": "de",
          "value": "Vom Mythos des Mann-Monats"
        },
        "fi": {
          "language": "fi",
          "value": "The Mythical Man-Month"
        },
        "eo": {
          "language": "eo",
          "value": "The Mythical Man-Month"
        },
        "nb": {
          "language": "nb",
          "value": "The Mythical Man-Month"
        },
        "nn": {
          "language": "nn",
          "value": "The Mythical Man-Month"
        },
        "sv": {
          "language": "sv",
          "value": "The Mythical Man-Month"
        }
      },
      "descriptions": {
        "de": {
          "language": "de",
          "value": "Buch von Frederick P. Brooks"
        },
        "nl": {
          "language": "nl",
          "value": "boek van Frederick Brooks"
        },
        "en": {
          "language": "en",
          "value": "book on software engineering and project management by Fred Brooks"
        },
        "he": {
          "language": "he",
          "value": "ספר מאת פרד ברוקס"
        },
        "ar": {
          "language": "ar",
          "value": "كتاب من تأليف فريد بروكس"
        },
        "fr": {
          "language": "fr",
          "value": "livre de Frederick Brooks"
        },
        "eo": {
          "language": "eo",
          "value": "libro de Frederick P. Brooks"
        },
        "es": {
          "language": "es",
          "value": "libro de Frederick Brooks"
        },
        "nb": {
          "language": "nb",
          "value": "bok om programvareutvikling og prosjektledelse av Fred Brooks"
        },
        "nn": {
          "language": "nn",
          "value": "bok om programvareutvikling og prosjektleiing av Fred Brooks"
        },
        "fi": {
          "language": "fi",
          "value": "Fred Brooksin esseekokoelma"
        }
      },
      "aliases": {
        "zh": [
          {
            "language": "zh",
            "value": "人月神话：软件项目管理之道"
          }
        ],
        "ja": [
          {
            "language": "ja",
            "value": "ソフトウェア開発の神話"
          }
        ],
        "fr": [
          {
            "language": "fr",
            "value": "Le Mythe Du Mois-Homme"
          },
          {
            "language": "fr",
            "value": "The mythical man-month"
          },
          {
            "language": "fr",
            "value": "Mois-homme"
          }
        ],
        "ru": [
          {
            "language": "ru",
            "value": "MCHM"
          }
        ],
        "es": [
          {
            "language": "es",
            "value": "The Mythical Man Month"
          },
          {
            "language": "es",
            "value": "Mítico Hombre-Mes"
          },
          {
            "language": "es",
            "value": "The Mythical Man-Month"
          },
          {
            "language": "es",
            "value": "El Mitico Hombre-Mes"
          },
          {
            "language": "es",
            "value": "Mitico Hombre-Mes"
          }
        ],
        "de": [
          {
            "language": "de",
            "value": "The Mythical Man-Month"
          }
        ]
      },
      "claims": {
        "P31": [
          {
            "mainsnak": {
              "snaktype": "value",
              "property": "P31",
              "hash": "5963e3cad5eee4ae1cffbefbac15327800b9a7e6",
              "datavalue": {
                "value": {
                  "entity-type": "item",
                  "numeric-id": 7725634,
                  "id": "Q7725634"
                },
                "type": "wikibase-entityid"
              },
              "datatype": "wikibase-item"
            },
            "type": "statement",
            "id": "q1192316$4B960428-7CA5-4280-AF5D-8079BFC8BC83",
            "rank": "normal"
          }
        ],
        "P123": [
          {
            "mainsnak": {
              "snaktype": "value",
              "property": "P123",
              "hash": "3813025d5da81bec3896b4842c1250460ef7268e",
              "datavalue": {
                "value": {
                  "entity-type": "item",
                  "numeric-id": 353060,
                  "id": "Q353060"
                },
                "type": "wikibase-entityid"
              },
              "datatype": "wikibase-item"
            },
            "type": "statement",
            "id": "q1192316$45834038-F90B-4B0C-A0DB-049E3749F21C",
            "rank": "normal",
            "references": [
              {
                "hash": "fa278ebfc458360e5aed63d5058cca83c46134f1",
                "snaks": {
                  "P143": [
                    {
                      "snaktype": "value",
                      "property": "P143",
                      "hash": "e4f6d9441d0600513c4533c672b5ab472dc73694",
                      "datavalue": {
                        "value": {
                          "entity-type": "item",
                          "numeric-id": 328,
                          "id": "Q328"
                        },
                        "type": "wikibase-entityid"
                      },
                      "datatype": "wikibase-item"
                    }
                  ]
                },
                "snaks-order": [
                  "P143"
                ]
              }
            ]
          }
        ],
        "P156": [
          {
            "mainsnak": {
              "snaktype": "value",
              "property": "P156",
              "hash": "8a99b55731a5fddf04e0bd06ffeaf82e6dbbdfdb",
              "datavalue": {
                "value": {
                  "entity-type": "item",
                  "numeric-id": 13631314,
                  "id": "Q13631314"
                },
                "type": "wikibase-entityid"
              },
              "datatype": "wikibase-item"
            },
            "type": "statement",
            "id": "q1192316$ACF7D25B-E5B0-4FED-83AD-C1E6FE25BF29",
            "rank": "normal",
            "references": [
              {
                "hash": "fa278ebfc458360e5aed63d5058cca83c46134f1",
                "snaks": {
                  "P143": [
                    {
                      "snaktype": "value",
                      "property": "P143",
                      "hash": "e4f6d9441d0600513c4533c672b5ab472dc73694",
                      "datavalue": {
                        "value": {
                          "entity-type": "item",
                          "numeric-id": 328,
                          "id": "Q328"
                        },
                        "type": "wikibase-entityid"
                      },
                      "datatype": "wikibase-item"
                    }
                  ]
                },
                "snaks-order": [
                  "P143"
                ]
              }
            ]
          }
        ],
        "P50": [
          {
            "mainsnak": {
              "snaktype": "value",
              "property": "P50",
              "hash": "3b4ef75f669afd6a7be5c9e6438fb2bd732288a6",
              "datavalue": {
                "value": {
                  "entity-type": "item",
                  "numeric-id": 92609,
                  "id": "Q92609"
                },
                "type": "wikibase-entityid"
              },
              "datatype": "wikibase-item"
            },
            "type": "statement",
            "id": "q1192316$EBF82091-A605-4DAF-8F42-750E2BEF63E7",
            "rank": "normal",
            "references": [
              {
                "hash": "fa278ebfc458360e5aed63d5058cca83c46134f1",
                "snaks": {
                  "P143": [
                    {
                      "snaktype": "value",
                      "property": "P143",
                      "hash": "e4f6d9441d0600513c4533c672b5ab472dc73694",
                      "datavalue": {
                        "value": {
                          "entity-type": "item",
                          "numeric-id": 328,
                          "id": "Q328"
                        },
                        "type": "wikibase-entityid"
                      },
                      "datatype": "wikibase-item"
                    }
                  ]
                },
                "snaks-order": [
                  "P143"
                ]
              },
              {
                "hash": "288ab581e7d2d02995a26dfa8b091d96e78457fc",
                "snaks": {
                  "P143": [
                    {
                      "snaktype": "value",
                      "property": "P143",
                      "hash": "6a164248fc96bfa583bbb495cb63ae6401ec203c",
                      "datavalue": {
                        "value": {
                          "entity-type": "item",
                          "numeric-id": 206855,
                          "id": "Q206855"
                        },
                        "type": "wikibase-entityid"
                      },
                      "datatype": "wikibase-item"
                    }
                  ]
                },
                "snaks-order": [
                  "P143"
                ]
              }
            ]
          }
        ],
        "P646": [
          {
            "mainsnak": {
              "snaktype": "value",
              "property": "P646",
              "hash": "ddbe5c325546bec689e177deb9127ec9f1fddc69",
              "datavalue": {
                "value": "/m/07py_",
                "type": "string"
              },
              "datatype": "external-id"
            },
            "type": "statement",
            "id": "Q1192316$2B9EE558-3D6E-4662-AA4F-CFCFA74D4984",
            "rank": "normal",
            "references": [
              {
                "hash": "2b00cb481cddcac7623114367489b5c194901c4a",
                "snaks": {
                  "P248": [
                    {
                      "snaktype": "value",
                      "property": "P248",
                      "hash": "a94b740202b097dd33355e0e6c00e54b9395e5e0",
                      "datavalue": {
                        "value": {
                          "entity-type": "item",
                          "numeric-id": 15241312,
                          "id": "Q15241312"
                        },
                        "type": "wikibase-entityid"
                      },
                      "datatype": "wikibase-item"
                    }
                  ],
                  "P577": [
                    {
                      "snaktype": "value",
                      "property": "P577",
                      "hash": "fde79ecb015112d2f29229ccc1ec514ed3e71fa2",
                      "datavalue": {
                        "value": {
                          "time": "+2013-10-28T00:00:00Z",
                          "timezone": 0,
                          "before": 0,
                          "after": 0,
                          "precision": 11,
                          "calendarmodel": "http://www.wikidata.org/entity/Q1985727"
                        },
                        "type": "time"
                      },
                      "datatype": "time"
                    }
                  ]
                },
                "snaks-order": [
                  "P248",
                  "P577"
                ]
              }
            ]
          }
        ],
        "P1476": [
          {
            "mainsnak": {
              "snaktype": "value",
              "property": "P1476",
              "hash": "7eb94f966e0bb1c4596b845e1cca86fe10e895ad",
              "datavalue": {
                "value": {
                  "text": "The Mythical Man-Month",
                  "language": "en"
                },
                "type": "monolingualtext"
              },
              "datatype": "monolingualtext"
            },
            "type": "statement",
            "id": "Q1192316$85e8b158-40ba-d657-7076-d9348c71eded",
            "rank": "normal"
          }
        ],
        "P577": [
          {
            "mainsnak": {
              "snaktype": "value",
              "property": "P577",
              "hash": "31d7d6e89687377f3cfbe7603fb9ca02a2b462a6",
              "datavalue": {
                "value": {
                  "time": "+1975-00-00T00:00:00Z",
                  "timezone": 0,
                  "before": 0,
                  "after": 0,
                  "precision": 9,
                  "calendarmodel": "http://www.wikidata.org/entity/Q1985727"
                },
                "type": "time"
              },
              "datatype": "time"
            },
            "type": "statement",
            "id": "Q1192316$F81F6BF1-EBA1-45FE-B31E-8A96D4D38EE7",
            "rank": "normal",
            "references": [
              {
                "hash": "fa278ebfc458360e5aed63d5058cca83c46134f1",
                "snaks": {
                  "P143": [
                    {
                      "snaktype": "value",
                      "property": "P143",
                      "hash": "e4f6d9441d0600513c4533c672b5ab472dc73694",
                      "datavalue": {
                        "value": {
                          "entity-type": "item",
                          "numeric-id": 328,
                          "id": "Q328"
                        },
                        "type": "wikibase-entityid"
                      },
                      "datatype": "wikibase-item"
                    }
                  ]
                },
                "snaks-order": [
                  "P143"
                ]
              },
              {
                "hash": "0fa9f546346c12dad970fd649c28c1702c172f29",
                "snaks": {
                  "P648": [
                    {
                      "snaktype": "value",
                      "property": "P648",
                      "hash": "ae2bf7306501be7c638f119974c23f38d7faecf9",
                      "datavalue": {
                        "value": "OL3510570W",
                        "type": "string"
                      },
                      "datatype": "external-id"
                    }
                  ]
                },
                "snaks-order": [
                  "P648"
                ]
              }
            ]
          }
        ],
        "P407": [
          {
            "mainsnak": {
              "snaktype": "value",
              "property": "P407",
              "hash": "daf1c4fcb58181b02dff9cc89deb084004ddae4b",
              "datavalue": {
                "value": {
                  "entity-type": "item",
                  "numeric-id": 1860,
                  "id": "Q1860"
                },
                "type": "wikibase-entityid"
              },
              "datatype": "wikibase-item"
            },
            "type": "statement",
            "id": "Q1192316$639D4F41-6DCF-4F1A-85C1-2713ED92DB35",
            "rank": "normal",
            "references": [
              {
                "hash": "a29a646602abf65105ed0f39a44231c962ece9ee",
                "snaks": {
                  "P143": [
                    {
                      "snaktype": "value",
                      "property": "P143",
                      "hash": "c6f1777471211df31724ac60175786f3872c83e9",
                      "datavalue": {
                        "value": {
                          "entity-type": "item",
                          "numeric-id": 177837,
                          "id": "Q177837"
                        },
                        "type": "wikibase-entityid"
                      },
                      "datatype": "wikibase-item"
                    }
                  ]
                },
                "snaks-order": [
                  "P143"
                ]
              }
            ]
          }
        ],
        "P495": [
          {
            "mainsnak": {
              "snaktype": "value",
              "property": "P495",
              "hash": "7f985e15819b74ed189d022e004890e66d2ae42e",
              "datavalue": {
                "value": {
                  "entity-type": "item",
                  "numeric-id": 30,
                  "id": "Q30"
                },
                "type": "wikibase-entityid"
              },
              "datatype": "wikibase-item"
            },
            "type": "statement",
            "id": "Q1192316$9B84FC54-AD50-4840-A15F-CF4957FB1668",
            "rank": "normal",
            "references": [
              {
                "hash": "a29a646602abf65105ed0f39a44231c962ece9ee",
                "snaks": {
                  "P143": [
                    {
                      "snaktype": "value",
                      "property": "P143",
                      "hash": "c6f1777471211df31724ac60175786f3872c83e9",
                      "datavalue": {
                        "value": {
                          "entity-type": "item",
                          "numeric-id": 177837,
                          "id": "Q177837"
                        },
                        "type": "wikibase-entityid"
                      },
                      "datatype": "wikibase-item"
                    }
                  ]
                },
                "snaks-order": [
                  "P143"
                ]
              }
            ]
          }
        ],
        "P136": [
          {
            "mainsnak": {
              "snaktype": "value",
              "property": "P136",
              "hash": "22fdbd4bdd2aaa17e0a4cae00f9d843f741ddcfb",
              "datavalue": {
                "value": {
                  "entity-type": "item",
                  "numeric-id": 35760,
                  "id": "Q35760"
                },
                "type": "wikibase-entityid"
              },
              "datatype": "wikibase-item"
            },
            "type": "statement",
            "id": "Q1192316$2ED8E56A-8800-4366-95ED-EE933D45EC11",
            "rank": "normal",
            "references": [
              {
                "hash": "d4bd87b862b12d99d26e86472d44f26858dee639",
                "snaks": {
                  "P143": [
                    {
                      "snaktype": "value",
                      "property": "P143",
                      "hash": "f30cbd35620c4ea6d0633aaf0210a8916130469b",
                      "datavalue": {
                        "value": {
                          "entity-type": "item",
                          "numeric-id": 8447,
                          "id": "Q8447"
                        },
                        "type": "wikibase-entityid"
                      },
                      "datatype": "wikibase-item"
                    }
                  ]
                },
                "snaks-order": [
                  "P143"
                ]
              }
            ]
          }
        ],
        "P5331": [
          {
            "mainsnak": {
              "snaktype": "value",
              "property": "P5331",
              "hash": "9b37fbfbb875c4bb66594f7b64a4ad04567acd92",
              "datavalue": {
                "value": "2083953",
                "type": "string"
              },
              "datatype": "external-id"
            },
            "type": "statement",
            "id": "Q1192316$879B8F41-C32F-4340-AFAC-096870A65229",
            "rank": "normal"
          }
        ],
        "P724": [
          {
            "mainsnak": {
              "snaktype": "value",
              "property": "P724",
              "hash": "65b224f206fdbbe3647ebcc4abb47c51521fef89",
              "datavalue": {
                "value": "mythicalmanmonth00broo",
                "type": "string"
              },
              "datatype": "external-id"
            },
            "type": "statement",
            "id": "Q1192316$460CB6FB-EFE7-4CA4-9402-86B78FC7D042",
            "rank": "normal"
          }
        ],
        "P648": [
          {
            "mainsnak": {
              "snaktype": "value",
              "property": "P648",
              "hash": "ae2bf7306501be7c638f119974c23f38d7faecf9",
              "datavalue": {
                "value": "OL3510570W",
                "type": "string"
              },
              "datatype": "external-id"
            },
            "type": "statement",
            "id": "Q1192316$B78F79DC-AF45-423D-B259-8F529ACC2881",
            "rank": "normal",
            "references": [
              {
                "hash": "ec3a3de54cf90a654ece556289291432b76b5948",
                "snaks": {
                  "P854": [
                    {
                      "snaktype": "value",
                      "property": "P854",
                      "hash": "c2b22a7ac925c35bdddcbd9b9bbaa46bc4960246",
                      "datavalue": {
                        "value": "https://archive.org/details/mythicalmanmonth00broo",
                        "type": "string"
                      },
                      "datatype": "url"
                    }
                  ],
                  "P813": [
                    {
                      "snaktype": "value",
                      "property": "P813",
                      "hash": "214d6abff03532386de80a727956428c0f93e51d",
                      "datavalue": {
                        "value": {
                          "time": "+2019-03-10T00:00:00Z",
                          "timezone": 0,
                          "before": 0,
                          "after": 0,
                          "precision": 11,
                          "calendarmodel": "http://www.wikidata.org/entity/Q1985727"
                        },
                        "type": "time"
                      },
                      "datatype": "time"
                    }
                  ]
                },
                "snaks-order": [
                  "P854",
                  "P813"
                ]
              }
            ]
          }
        ],
        "P921": [
          {
            "mainsnak": {
              "snaktype": "value",
              "property": "P921",
              "hash": "6a419480d55735e94836b8d78864a6408a560db3",
              "datavalue": {
                "value": {
                  "entity-type": "item",
                  "numeric-id": 638608,
                  "id": "Q638608"
                },
                "type": "wikibase-entityid"
              },
              "datatype": "wikibase-item"
            },
            "type": "statement",
            "id": "Q1192316$D6D9449C-101F-411C-8B29-1999BF604DE9",
            "rank": "normal"
          }
        ],
        "P8408": [
          {
            "mainsnak": {
              "snaktype": "value",
              "property": "P8408",
              "hash": "7e06e3fccca5e555fb448ccd2d5bb1ccaa972d45",
              "datavalue": {
                "value": "MythicalManMonth",
                "type": "string"
              },
              "datatype": "external-id"
            },
            "type": "statement",
            "id": "Q1192316$53AD7BC2-0670-475F-BB85-72C31697FA7E",
            "rank": "normal",
            "references": [
              {
                "hash": "9a681f9dd95c90224547c404e11295f4f7dcf54e",
                "snaks": {
                  "P248": [
                    {
                      "snaktype": "value",
                      "property": "P248",
                      "hash": "9d5780dddffa8746637a9929a936ab6b0f601e24",
                      "datavalue": {
                        "value": {
                          "entity-type": "item",
                          "numeric-id": 64139102,
                          "id": "Q64139102"
                        },
                        "type": "wikibase-entityid"
                      },
                      "datatype": "wikibase-item"
                    }
                  ],
                  "P813": [
                    {
                      "snaktype": "value",
                      "property": "P813",
                      "hash": "622a5a27fa5b25e7e7984974e9db494cf8460990",
                      "datavalue": {
                        "value": {
                          "time": "+2020-07-09T00:00:00Z",
                          "timezone": 0,
                          "before": 0,
                          "after": 0,
                          "precision": 11,
                          "calendarmodel": "http://www.wikidata.org/entity/Q1985727"
                        },
                        "type": "time"
                      },
                      "datatype": "time"
                    }
                  ]
                },
                "snaks-order": [
                  "P248",
                  "P813"
                ]
              }
            ]
          }
        ],
        "P8383": [
          {
            "mainsnak": {
              "snaktype": "value",
              "property": "P8383",
              "hash": "81618aad290d140c457be4783a5b0ba1d6b59579",
              "datavalue": {
                "value": "1905885",
                "type": "string"
              },
              "datatype": "external-id"
            },
            "type": "statement",
            "id": "Q1192316$53bab309-b162-4c6e-9e30-15ecf22291e7",
            "rank": "normal",
            "references": [
              {
                "hash": "beae309597a1e2b2989578457715da79a4a354fe",
                "snaks": {
                  "P813": [
                    {
                      "snaktype": "value",
                      "property": "P813",
                      "hash": "8eff9352009a4ea5ac974ecbfc5102c6a56bc237",
                      "datavalue": {
                        "value": {
                          "time": "+2020-09-18T00:00:00Z",
                          "timezone": 0,
                          "before": 0,
                          "after": 0,
                          "precision": 11,
                          "calendarmodel": "http://www.wikidata.org/entity/Q1985727"
                        },
                        "type": "time"
                      },
                      "datatype": "time"
                    }
                  ],
                  "P248": [
                    {
                      "snaktype": "value",
                      "property": "P248",
                      "hash": "a0e84923b8d99fc8a5013954ac16befd8e4f4696",
                      "datavalue": {
                        "value": {
                          "entity-type": "item",
                          "numeric-id": 2359213,
                          "id": "Q2359213"
                        },
                        "type": "wikibase-entityid"
                      },
                      "datatype": "wikibase-item"
                    }
                  ]
                },
                "snaks-order": [
                  "P813",
                  "P248"
                ]
              }
            ]
          }
        ],
        "P3553": [
          {
            "mainsnak": {
              "snaktype": "value",
              "property": "P3553",
              "hash": "03227eb7720d1852738b9bc1f5d93178dc23da55",
              "datavalue": {
                "value": "19606368",
                "type": "string"
              },
              "datatype": "external-id"
            },
            "type": "statement",
            "id": "Q1192316$7CD39A2B-168E-4FF7-A909-DAC331E3ED11",
            "rank": "normal"
          }
        ]
      },
      "sitelinks": {
        "dawiki": {
          "site": "dawiki",
          "title": "The Mythical Man-Month",
          "badges": [],
          "url": "https://da.wikipedia.org/wiki/The_Mythical_Man-Month"
        },
        "dewiki": {
          "site": "dewiki",
          "title": "Vom Mythos des Mann-Monats",
          "badges": [],
          "url": "https://de.wikipedia.org/wiki/Vom_Mythos_des_Mann-Monats"
        },
        "enwiki": {
          "site": "enwiki",
          "title": "The Mythical Man-Month",
          "badges": [],
          "url": "https://en.wikipedia.org/wiki/The_Mythical_Man-Month"
        },
        "eswiki": {
          "site": "eswiki",
          "title": "El Mítico Hombre-Mes",
          "badges": [],
          "url": "https://es.wikipedia.org/wiki/El_M%C3%ADtico_Hombre-Mes"
        },
        "fiwiki": {
          "site": "fiwiki",
          "title": "The Mythical Man-Month",
          "badges": [],
          "url": "https://fi.wikipedia.org/wiki/The_Mythical_Man-Month"
        },
        "frwiki": {
          "site": "frwiki",
          "title": "Le Mythe du mois-homme",
          "badges": [],
          "url": "https://fr.wikipedia.org/wiki/Le_Mythe_du_mois-homme"
        },
        "jawiki": {
          "site": "jawiki",
          "title": "人月の神話",
          "badges": [],
          "url": "https://ja.wikipedia.org/wiki/%E4%BA%BA%E6%9C%88%E3%81%AE%E7%A5%9E%E8%A9%B1"
        },
        "kowiki": {
          "site": "kowiki",
          "title": "맨먼스 미신",
          "badges": [],
          "url": "https://ko.wikipedia.org/wiki/%EB%A7%A8%EB%A8%BC%EC%8A%A4_%EB%AF%B8%EC%8B%A0"
        },
        "lvwiki": {
          "site": "lvwiki",
          "title": "Mītiskais cilvēkmēnesis",
          "badges": [],
          "url": "https://lv.wikipedia.org/wiki/M%C4%ABtiskais_cilv%C4%93km%C4%93nesis"
        },
        "ptwiki": {
          "site": "ptwiki",
          "title": "The Mythical Man-Month",
          "badges": [],
          "url": "https://pt.wikipedia.org/wiki/The_Mythical_Man-Month"
        },
        "ruwiki": {
          "site": "ruwiki",
          "title": "Мифический человеко-месяц",
          "badges": [],
          "url": "https://ru.wikipedia.org/wiki/%D0%9C%D0%B8%D1%84%D0%B8%D1%87%D0%B5%D1%81%D0%BA%D0%B8%D0%B9_%D1%87%D0%B5%D0%BB%D0%BE%D0%B2%D0%B5%D0%BA%D0%BE-%D0%BC%D0%B5%D1%81%D1%8F%D1%86"
        },
        "ukwiki": {
          "site": "ukwiki",
          "title": "Міфічний людино-місяць",
          "badges": [],
          "url": "https://uk.wikipedia.org/wiki/%D0%9C%D1%96%D1%84%D1%96%D1%87%D0%BD%D0%B8%D0%B9_%D0%BB%D1%8E%D0%B4%D0%B8%D0%BD%D0%BE-%D0%BC%D1%96%D1%81%D1%8F%D1%86%D1%8C"
        },
        "viwiki": {
          "site": "viwiki",
          "title": "The Mythical Man-Month",
          "badges": [],
          "url": "https://vi.wikipedia.org/wiki/The_Mythical_Man-Month"
        },
        "zhwiki": {
          "site": "zhwiki",
          "title": "人月神话",
          "badges": [],
          "url": "https://zh.wikipedia.org/wiki/%E4%BA%BA%E6%9C%88%E7%A5%9E%E8%AF%9D"
        },
        "zhwikiquote": {
          "site": "zhwikiquote",
          "title": "人月神话",
          "badges": [],
          "url": "https://zh.wikiquote.org/wiki/%E4%BA%BA%E6%9C%88%E7%A5%9E%E8%AF%9D"
        }
      }
    }
  }
}
