{
    "entities": {
        "Q22950221": {
            "pageid": 24967956,
            "ns": 0,
            "title": "Q22950221",
            "lastrevid": 1739227507,
            "modified": "2022-09-29T19:59:19Z",
            "type": "item",
            "id": "Q22950221",
            "labels": {
                "fr": {
                    "language": "fr",
                    "value": "chapelle de Bethl\u00e9em"
                },
                "en": {
                    "language": "en",
                    "value": "Chapelle de Bethl\u00e9em"
                },
                "nrm": {
                    "language": "nrm",
                    "value": "Capelle de Bethl\u00e9em (Aubevoye)"
                },
                "oc": {
                    "language": "oc",
                    "value": "Cap\u00e8la de Betel\u00e8m (Aubevoye)"
                }
            },
            "descriptions": {
                "fr": {
                    "language": "fr",
                    "value": "chapelle situ\u00e9e dans l'Eure, en France"
                },
                "en": {
                    "language": "en",
                    "value": "chapel located in Eure, in France"
                },
                "nl": {
                    "language": "nl",
                    "value": "kapel in Le Val-d'Hazey, Frankrijk"
                },
                "es": {
                    "language": "es",
                    "value": "capilla situada en Eure, en Francia"
                },
                "de": {
                    "language": "de",
                    "value": "Kapelle in Frankreich"
                }
            },
            "aliases": {},
            "claims": {
                "P17": [{
                    "mainsnak": {
                        "snaktype": "value",
                        "property": "P17",
                        "hash": "c05db5d169c2560b9799d567a803d20a392f53e4",
                        "datavalue": {
                            "value": {
                                "entity-type": "item",
                                "numeric-id": 142,
                                "id": "Q142"
                            },
                            "type": "wikibase-entityid"
                        },
                        "datatype": "wikibase-item"
                    },
                    "type": "statement",
                    "id": "Q22950221$fb2d6537-25e6-4778-8c7f-67c0e21e8646",
                    "rank": "normal",
                    "references": [{
                        "hash": "d709174cc609072fbf310bb52ddfb7aa2332b473",
                        "snaks": {
                            "P248": [{
                                "snaktype": "value",
                                "property": "P248",
                                "hash": "fc376b4e25f8c58fa7210b660e00a66558a3332b",
                                "datavalue": {
                                    "value": {
                                        "entity-type": "item",
                                        "numeric-id": 809830,
                                        "id": "Q809830"
                                    },
                                    "type": "wikibase-entityid"
                                },
                                "datatype": "wikibase-item"
                            }]
                        },
                        "snaks-order": ["P248"]
                    }]
                }],
                "P380": [{
                    "mainsnak": {
                        "snaktype": "value",
                        "property": "P380",
                        "hash": "33e9ffd6066e93ee5794031c9997b33f4cfce9ed",
                        "datavalue": {
                            "value": "PA00099312",
                            "type": "string"
                        },
                        "datatype": "external-id"
                    },
                    "type": "statement",
                    "id": "Q22950221$2f1eb212-46c6-4df7-b79e-3f43cc4c27ef",
                    "rank": "normal",
                    "references": [{
                        "hash": "d709174cc609072fbf310bb52ddfb7aa2332b473",
                        "snaks": {
                            "P248": [{
                                "snaktype": "value",
                                "property": "P248",
                                "hash": "fc376b4e25f8c58fa7210b660e00a66558a3332b",
                                "datavalue": {
                                    "value": {
                                        "entity-type": "item",
                                        "numeric-id": 809830,
                                        "id": "Q809830"
                                    },
                                    "type": "wikibase-entityid"
                                },
                                "datatype": "wikibase-item"
                            }]
                        },
                        "snaks-order": ["P248"]
                    }]
                }],
                "P625": [{
                    "mainsnak": {
                        "snaktype": "value",
                        "property": "P625",
                        "hash": "b959ada4ab8e8c88d79164fb0ae79106d9a46050",
                        "datavalue": {
                            "value": {
                                "latitude": 49.1747,
                                "longitude": 1.3265,
                                "altitude": null,
                                "precision": 0.00027777777777778,
                                "globe": "http://www.wikidata.org/entity/Q2"
                            },
                            "type": "globecoordinate"
                        },
                        "datatype": "globe-coordinate"
                    },
                    "type": "statement",
                    "id": "Q22950221$d3eb82c2-2c71-4742-b6c0-12a260fd2814",
                    "rank": "normal"
                }],
                "P131": [{
                    "mainsnak": {
                        "snaktype": "value",
                        "property": "P131",
                        "hash": "195b781117e5717ec9715ef492d535a454079b2b",
                        "datavalue": {
                            "value": {
                                "entity-type": "item",
                                "numeric-id": 1008745,
                                "id": "Q1008745"
                            },
                            "type": "wikibase-entityid"
                        },
                        "datatype": "wikibase-item"
                    },
                    "type": "statement",
                    "qualifiers": {
                        "P582": [{
                            "snaktype": "value",
                            "property": "P582",
                            "hash": "dd073dc6d1e20f0816f8d232df2dd14342f843a2",
                            "datavalue": {
                                "value": {
                                    "time": "+2015-12-31T00:00:00Z",
                                    "timezone": 0,
                                    "before": 0,
                                    "after": 0,
                                    "precision": 11,
                                    "calendarmodel": "http://www.wikidata.org/entity/Q1985727"
                                },
                                "type": "time"
                            },
                            "datatype": "time"
                        }]
                    },
                    "qualifiers-order": ["P582"],
                    "id": "Q22950221$80250122-5697-4d98-9068-5d2dd7583d04",
                    "rank": "normal",
                    "references": [{
                        "hash": "d709174cc609072fbf310bb52ddfb7aa2332b473",
                        "snaks": {
                            "P248": [{
                                "snaktype": "value",
                                "property": "P248",
                                "hash": "fc376b4e25f8c58fa7210b660e00a66558a3332b",
                                "datavalue": {
                                    "value": {
                                        "entity-type": "item",
                                        "numeric-id": 809830,
                                        "id": "Q809830"
                                    },
                                    "type": "wikibase-entityid"
                                },
                                "datatype": "wikibase-item"
                            }]
                        },
                        "snaks-order": ["P248"]
                    }]
                }, {
                    "mainsnak": {
                        "snaktype": "value",
                        "property": "P131",
                        "hash": "98723999c14a517584f5850e8895373c3d93e21a",
                        "datavalue": {
                            "value": {
                                "entity-type": "item",
                                "numeric-id": 21979856,
                                "id": "Q21979856"
                            },
                            "type": "wikibase-entityid"
                        },
                        "datatype": "wikibase-item"
                    },
                    "type": "statement",
                    "qualifiers": {
                        "P580": [{
                            "snaktype": "value",
                            "property": "P580",
                            "hash": "479dea0ac22f3d69f900dc0bfeb501c69b27e8fa",
                            "datavalue": {
                                "value": {
                                    "time": "+2016-01-01T00:00:00Z",
                                    "timezone": 0,
                                    "before": 0,
                                    "after": 0,
                                    "precision": 11,
                                    "calendarmodel": "http://www.wikidata.org/entity/Q1985727"
                                },
                                "type": "time"
                            },
                            "datatype": "time"
                        }]
                    },
                    "qualifiers-order": ["P580"],
                    "id": "Q22950221$f653ccce-8f5f-4ed9-9cb3-0b805959b44a",
                    "rank": "preferred"
                }],
                "P31": [{
                    "mainsnak": {
                        "snaktype": "value",
                        "property": "P31",
                        "hash": "7563eb8b8c62434236e596bee42af7543786e4ca",
                        "datavalue": {
                            "value": {
                                "entity-type": "item",
                                "numeric-id": 108325,
                                "id": "Q108325"
                            },
                            "type": "wikibase-entityid"
                        },
                        "datatype": "wikibase-item"
                    },
                    "type": "statement",
                    "id": "Q22950221$2c85553e-3a00-4a61-a6f5-2a8602fc9dd2",
                    "rank": "normal",
                    "references": [{
                        "hash": "d709174cc609072fbf310bb52ddfb7aa2332b473",
                        "snaks": {
                            "P248": [{
                                "snaktype": "value",
                                "property": "P248",
                                "hash": "fc376b4e25f8c58fa7210b660e00a66558a3332b",
                                "datavalue": {
                                    "value": {
                                        "entity-type": "item",
                                        "numeric-id": 809830,
                                        "id": "Q809830"
                                    },
                                    "type": "wikibase-entityid"
                                },
                                "datatype": "wikibase-item"
                            }]
                        },
                        "snaks-order": ["P248"]
                    }]
                }],
                "P373": [{
                    "mainsnak": {
                        "snaktype": "value",
                        "property": "P373",
                        "hash": "5d9dc47bb03f3699fb422bc0d2b4298e00e7da29",
                        "datavalue": {
                            "value": "Chapelle de Bethl\u00e9em (Aubevoye)",
                            "type": "string"
                        },
                        "datatype": "string"
                    },
                    "type": "statement",
                    "id": "Q22950221$613E3C91-9DCB-4693-B1A0-A12831DC0E42",
                    "rank": "normal"
                }],
                "P18": [{
                    "mainsnak": {
                        "snaktype": "value",
                        "property": "P18",
                        "hash": "e6470de014ca2bf1940062e5fa09e7d2889a4424",
                        "datavalue": {
                            "value": "Chapelle de Bethleem clocher nord ouest.jpg",
                            "type": "string"
                        },
                        "datatype": "commonsMedia"
                    },
                    "type": "statement",
                    "id": "Q22950221$7F85D0CB-C261-4A72-957B-9956189FD260",
                    "rank": "normal"
                }],
                "P149": [{
                    "mainsnak": {
                        "snaktype": "value",
                        "property": "P149",
                        "hash": "c6a14d592bea27e0381d22e92658b0ebe3c76c97",
                        "datavalue": {
                            "value": {
                                "entity-type": "item",
                                "numeric-id": 2864731,
                                "id": "Q2864731"
                            },
                            "type": "wikibase-entityid"
                        },
                        "datatype": "wikibase-item"
                    },
                    "type": "statement",
                    "id": "Q22950221$53BD1631-4951-49B9-AB94-F4FB663AB45A",
                    "rank": "normal",
                    "references": [{
                        "hash": "95133b3ecb4e6cdbc3db2d789359b719b8f179dd",
                        "snaks": {
                            "P143": [{
                                "snaktype": "value",
                                "property": "P143",
                                "hash": "f30cbd35620c4ea6d0633aaf0210a8916130469b",
                                "datavalue": {
                                    "value": {
                                        "entity-type": "item",
                                        "numeric-id": 8447,
                                        "id": "Q8447"
                                    },
                                    "type": "wikibase-entityid"
                                },
                                "datatype": "wikibase-item"
                            }],
                            "P4656": [{
                                "snaktype": "value",
                                "property": "P4656",
                                "hash": "1136e45fa95af36c0e2d59d3a3ea9919aef428a8",
                                "datavalue": {
                                    "value": "https://fr.wikipedia.org/w/index.php?title=Chapelle_de_Bethl\u00e9em_(Aubevoye)&oldid=150179452",
                                    "type": "string"
                                },
                                "datatype": "url"
                            }]
                        },
                        "snaks-order": ["P143", "P4656"]
                    }]
                }],
                "P6375": [{
                    "mainsnak": {
                        "snaktype": "value",
                        "property": "P6375",
                        "hash": "d524af1c43d6cbe0ee5c723d555f102db1e14838",
                        "datavalue": {
                            "value": {
                                "text": "Bethl\u00e9em",
                                "language": "fr"
                            },
                            "type": "monolingualtext"
                        },
                        "datatype": "monolingualtext"
                    },
                    "type": "statement",
                    "id": "Q22950221$1d1b0b56-e560-45d5-a32c-c650e6c11ca8",
                    "rank": "normal"
                }],
                "P571": [{
                    "mainsnak": {
                        "snaktype": "value",
                        "property": "P571",
                        "hash": "77884f5e239b0c9191b8a64cf543727f2728a5c0",
                        "datavalue": {
                            "value": {
                                "time": "+1576-00-00T00:00:00Z",
                                "timezone": 0,
                                "before": 0,
                                "after": 0,
                                "precision": 9,
                                "calendarmodel": "http://www.wikidata.org/entity/Q1985786"
                            },
                            "type": "time"
                        },
                        "datatype": "time"
                    },
                    "type": "statement",
                    "id": "Q22950221$709292f1-46c1-bc25-a9ae-cbd5107547ab",
                    "rank": "normal",
                    "references": [{
                        "hash": "8694f040823f99f781862b588a92a6c1b4242bbc",
                        "snaks": {
                            "P854": [{
                                "snaktype": "value",
                                "property": "P854",
                                "hash": "2bdd27c1025628955ca83ff57cd0423fe06ca8bd",
                                "datavalue": {
                                    "value": "https://www.pop.culture.gouv.fr/notice/merimee/PA00099312",
                                    "type": "string"
                                },
                                "datatype": "url"
                            }]
                        },
                        "snaks-order": ["P854"]
                    }]
                }],
                "P2671": [{
                    "mainsnak": {
                        "snaktype": "value",
                        "property": "P2671",
                        "hash": "8512f5b76e1c9190d6a2f7f1fb5416e2ebcf4cac",
                        "datavalue": {
                            "value": "/g/11c1wm11wx",
                            "type": "string"
                        },
                        "datatype": "external-id"
                    },
                    "type": "statement",
                    "id": "Q22950221$2B2F0E40-4D29-40A0-A6AE-6BB4827B9B91",
                    "rank": "normal"
                }],
                "P140": [{
                    "mainsnak": {
                        "snaktype": "value",
                        "property": "P140",
                        "hash": "1d37cef459ae3310e8856a343b4f5d0ceaee71e2",
                        "datavalue": {
                            "value": {
                                "entity-type": "item",
                                "numeric-id": 1841,
                                "id": "Q1841"
                            },
                            "type": "wikibase-entityid"
                        },
                        "datatype": "wikibase-item"
                    },
                    "type": "statement",
                    "id": "Q22950221$9202d12f-4747-52f5-45d9-236841bc31e4",
                    "rank": "normal"
                }],
                "P5816": [{
                    "mainsnak": {
                        "snaktype": "value",
                        "property": "P5816",
                        "hash": "36f5fb7a19d72021f218e796b092b00f5c167e47",
                        "datavalue": {
                            "value": {
                                "entity-type": "item",
                                "numeric-id": 56557159,
                                "id": "Q56557159"
                            },
                            "type": "wikibase-entityid"
                        },
                        "datatype": "wikibase-item"
                    },
                    "type": "statement",
                    "id": "Q22950221$89a63a09-48ce-7c04-10cd-1b53101020f9",
                    "rank": "normal"
                }],
                "P527": [{
                    "mainsnak": {
                        "snaktype": "value",
                        "property": "P527",
                        "hash": "80f459510ab5da8d2c321329ae7c971310340ef1",
                        "datavalue": {
                            "value": {
                                "entity-type": "item",
                                "numeric-id": 113256661,
                                "id": "Q113256661"
                            },
                            "type": "wikibase-entityid"
                        },
                        "datatype": "wikibase-item"
                    },
                    "type": "statement",
                    "id": "Q22950221$7bc94b80-4b23-455b-d159-5ee4ac9694f6",
                    "rank": "normal"
                }],
                "P186": [{
                    "mainsnak": {
                        "snaktype": "value",
                        "property": "P186",
                        "hash": "54027dc0b631752368760ebaaf716b429f402edc",
                        "datavalue": {
                            "value": {
                                "entity-type": "item",
                                "numeric-id": 47401,
                                "id": "Q47401"
                            },
                            "type": "wikibase-entityid"
                        },
                        "datatype": "wikibase-item"
                    },
                    "type": "statement",
                    "id": "Q22950221$87a7aabb-4b45-9834-19e9-84fd9b28c347",
                    "rank": "normal"
                }],
                "P1435": [{
                    "mainsnak": {
                        "snaktype": "value",
                        "property": "P1435",
                        "hash": "2a0d37ac7e76d305563257e91e85bb3847f90355",
                        "datavalue": {
                            "value": {
                                "entity-type": "item",
                                "numeric-id": 10387575,
                                "id": "Q10387575"
                            },
                            "type": "wikibase-entityid"
                        },
                        "datatype": "wikibase-item"
                    },
                    "type": "statement",
                    "qualifiers": {
                        "P518": [{
                            "snaktype": "value",
                            "property": "P518",
                            "hash": "c221ef55a68fdebd93b5cd03f42cedcfcedb9cf5",
                            "datavalue": {
                                "value": {
                                    "entity-type": "item",
                                    "numeric-id": 113256661,
                                    "id": "Q113256661"
                                },
                                "type": "wikibase-entityid"
                            },
                            "datatype": "wikibase-item"
                        }]
                    },
                    "qualifiers-order": ["P518"],
                    "id": "Q22950221$5956e418-4bbc-b333-09af-d6b630f02857",
                    "rank": "normal",
                    "references": [{
                        "hash": "d709174cc609072fbf310bb52ddfb7aa2332b473",
                        "snaks": {
                            "P248": [{
                                "snaktype": "value",
                                "property": "P248",
                                "hash": "fc376b4e25f8c58fa7210b660e00a66558a3332b",
                                "datavalue": {
                                    "value": {
                                        "entity-type": "item",
                                        "numeric-id": 809830,
                                        "id": "Q809830"
                                    },
                                    "type": "wikibase-entityid"
                                },
                                "datatype": "wikibase-item"
                            }]
                        },
                        "snaks-order": ["P248"]
                    }]
                }],
                "P112": [{
                    "mainsnak": {
                        "snaktype": "value",
                        "property": "P112",
                        "hash": "92d9e5506f2f6e71e9e23f48f32a19ae5ae23e0c",
                        "datavalue": {
                            "value": {
                                "entity-type": "item",
                                "numeric-id": 544166,
                                "id": "Q544166"
                            },
                            "type": "wikibase-entityid"
                        },
                        "datatype": "wikibase-item"
                    },
                    "type": "statement",
                    "id": "Q22950221$acccabd5-4aee-8d69-050e-d507e57a5ddb",
                    "rank": "normal"
                }],
                "P138": [{
                    "mainsnak": {
                        "snaktype": "value",
                        "property": "P138",
                        "hash": "3f2091e8c6fe0739c65f7b6f1ab24e8229355e1e",
                        "datavalue": {
                            "value": {
                                "entity-type": "item",
                                "numeric-id": 194504,
                                "id": "Q194504"
                            },
                            "type": "wikibase-entityid"
                        },
                        "datatype": "wikibase-item"
                    },
                    "type": "statement",
                    "id": "Q22950221$01f8753c-46e9-c7f4-d912-f323092a32fa",
                    "rank": "normal"
                }],
                "P3371": [{
                    "mainsnak": {
                        "snaktype": "value",
                        "property": "P3371",
                        "hash": "70b3961dbb7fa2b03aab6e5861e319bfa5ecb3cf",
                        "datavalue": {
                            "value": "178374",
                            "type": "string"
                        },
                        "datatype": "external-id"
                    },
                    "type": "statement",
                    "id": "Q22950221$b4ae4e2d-4636-96b5-0fdb-dfb81062b85b",
                    "rank": "normal"
                }],
                "P5775": [{
                    "mainsnak": {
                        "snaktype": "value",
                        "property": "P5775",
                        "hash": "3925bf93653b744082fdfcd65740aa053a02d513",
                        "datavalue": {
                            "value": "Aubevoye 2016-10 - Bethl\u00e9em PIC 0660 07.jpg",
                            "type": "string"
                        },
                        "datatype": "commonsMedia"
                    },
                    "type": "statement",
                    "id": "Q22950221$c54bbe8c-42eb-55d8-127c-4da2410d4803",
                    "rank": "normal"
                }]
            },
            "sitelinks": {
                "commonswiki": {
                    "site": "commonswiki",
                    "title": "Category:Chapelle de Bethl\u00e9em (Aubevoye)",
                    "badges": [],
                    "url": "https://commons.wikimedia.org/wiki/Category:Chapelle_de_Bethl%C3%A9em_(Aubevoye)"
                },
                "frwiki": {
                    "site": "frwiki",
                    "title": "Chapelle de Bethl\u00e9em (Aubevoye)",
                    "badges": [],
                    "url": "https://fr.wikipedia.org/wiki/Chapelle_de_Bethl%C3%A9em_(Aubevoye)"
                },
                "nrmwiki": {
                    "site": "nrmwiki",
                    "title": "Capelle de Bethl\u00e9em (Aubevoye)",
                    "badges": [],
                    "url": "https://nrm.wikipedia.org/wiki/Capelle_de_Bethl%C3%A9em_(Aubevoye)"
                },
                "ocwiki": {
                    "site": "ocwiki",
                    "title": "Cap\u00e8la de Betel\u00e8m (Aubevoye)",
                    "badges": [],
                    "url": "https://oc.wikipedia.org/wiki/Cap%C3%A8la_de_Betel%C3%A8m_(Aubevoye)"
                }
            }
        }
    }
}
