{
    "@graph": [
        {
            "@id": "data:Q22950221",
            "@type": "schema:Dataset",
            "about": "wd:Q22950221",
            "license": "http://creativecommons.org/publicdomain/zero/1.0/",
            "softwareVersion": "1.0.0",
            "version": 1739227507,
            "dateModified": "2022-09-29T19:59:19Z",
            "statements": 21,
            "sitelinks": 4,
            "identifiers": 3
        },
        {
            "@id": "wd:Q22950221",
            "@type": "wikibase:Item"
        },
        {
            "@id": "https://fr.wikipedia.org/wiki/Chapelle_de_Bethl%C3%A9em_(Aubevoye)",
            "@type": "schema:Article",
            "about": "wd:Q22950221",
            "inLanguage": "fr",
            "isPartOf": "https://fr.wikipedia.org/",
            "name": {
                "@language": "fr",
                "@value": "Chapelle de Bethl\u00e9em (Aubevoye)"
            }
        },
        {
            "@id": "https://fr.wikipedia.org/",
            "wikiGroup": "wikipedia"
        },
        {
            "@id": "https://commons.wikimedia.org/wiki/Category:Chapelle_de_Bethl%C3%A9em_(Aubevoye)",
            "@type": "schema:Article",
            "about": "wd:Q22950221",
            "inLanguage": "en",
            "isPartOf": "https://commons.wikimedia.org/",
            "name": {
                "@language": "en",
                "@value": "Category:Chapelle de Bethl\u00e9em (Aubevoye)"
            }
        },
        {
            "@id": "https://commons.wikimedia.org/",
            "wikiGroup": "commons"
        },
        {
            "@id": "https://nrm.wikipedia.org/wiki/Capelle_de_Bethl%C3%A9em_(Aubevoye)",
            "@type": "schema:Article",
            "about": "wd:Q22950221",
            "inLanguage": "fr-x-nrm",
            "isPartOf": "https://nrm.wikipedia.org/",
            "name": {
                "@language": "fr-x-nrm",
                "@value": "Capelle de Bethl\u00e9em (Aubevoye)"
            }
        },
        {
            "@id": "https://nrm.wikipedia.org/",
            "wikiGroup": "wikipedia"
        },
        {
            "@id": "https://oc.wikipedia.org/wiki/Cap%C3%A8la_de_Betel%C3%A8m_(Aubevoye)",
            "@type": "schema:Article",
            "about": "wd:Q22950221",
            "inLanguage": "oc",
            "isPartOf": "https://oc.wikipedia.org/",
            "name": {
                "@language": "oc",
                "@value": "Cap\u00e8la de Betel\u00e8m (Aubevoye)"
            }
        },
        {
            "@id": "https://oc.wikipedia.org/",
            "wikiGroup": "wikipedia"
        },
        {
            "@id": "wd:Q22950221",
            "P17": "wd:Q142",
            "P380": "PA00099312",
            "P625": "Point(1.3265 49.1747)",
            "P131": "wd:Q21979856",
            "P31": "wd:Q108325",
            "P373": "Chapelle de Bethl\u00e9em (Aubevoye)",
            "P18": "http://commons.wikimedia.org/wiki/Special:FilePath/Chapelle%20de%20Bethleem%20clocher%20nord%20ouest.jpg",
            "P149": "wd:Q2864731",
            "P6375": {
                "@language": "fr",
                "@value": "Bethl\u00e9em"
            },
            "P571": "1576-01-01T00:00:00Z",
            "P2671": "/g/11c1wm11wx",
            "wdtn:P2671": "http://g.co/kg/g/11c1wm11wx",
            "P140": "wd:Q1841",
            "P5816": "wd:Q56557159",
            "P527": "wd:Q113256661",
            "P186": "wd:Q47401",
            "P1435": "wd:Q10387575",
            "P112": "wd:Q544166",
            "P138": "wd:Q194504",
            "P3371": "178374",
            "P5775": "http://commons.wikimedia.org/wiki/Special:FilePath/Aubevoye%202016-10%20-%20Bethl%C3%A9em%20PIC%200660%2007.jpg",
            "p:P17": "s:Q22950221-fb2d6537-25e6-4778-8c7f-67c0e21e8646"
        },
        {
            "@id": "s:Q22950221-fb2d6537-25e6-4778-8c7f-67c0e21e8646",
            "@type": [
                "wikibase:Statement",
                "wikibase:BestRank"
            ],
            "rank": "wikibase:NormalRank",
            "ps:P17": "wd:Q142",
            "wasDerivedFrom": "ref:d709174cc609072fbf310bb52ddfb7aa2332b473"
        },
        {
            "@id": "wd:Q22950221",
            "p:P380": "s:Q22950221-2f1eb212-46c6-4df7-b79e-3f43cc4c27ef"
        },
        {
            "@id": "s:Q22950221-2f1eb212-46c6-4df7-b79e-3f43cc4c27ef",
            "@type": [
                "wikibase:Statement",
                "wikibase:BestRank"
            ],
            "rank": "wikibase:NormalRank",
            "ps:P380": "PA00099312",
            "wasDerivedFrom": "ref:d709174cc609072fbf310bb52ddfb7aa2332b473"
        },
        {
            "@id": "wd:Q22950221",
            "p:P625": "s:Q22950221-d3eb82c2-2c71-4742-b6c0-12a260fd2814"
        },
        {
            "@id": "s:Q22950221-d3eb82c2-2c71-4742-b6c0-12a260fd2814",
            "@type": [
                "wikibase:Statement",
                "wikibase:BestRank"
            ],
            "rank": "wikibase:NormalRank",
            "ps:P625": "Point(1.3265 49.1747)",
            "psv:P625": "v:d4244113ab870c7c21fbdd148575d992"
        },
        {
            "@id": "wd:Q22950221",
            "p:P131": "s:Q22950221-80250122-5697-4d98-9068-5d2dd7583d04"
        },
        {
            "@id": "s:Q22950221-80250122-5697-4d98-9068-5d2dd7583d04",
            "@type": "wikibase:Statement",
            "rank": "wikibase:NormalRank",
            "ps:P131": "wd:Q1008745",
            "P582": "2015-12-31T00:00:00Z",
            "pqv:P582": "v:959936cdbc9057ead8b911540e02b646",
            "wasDerivedFrom": "ref:d709174cc609072fbf310bb52ddfb7aa2332b473"
        },
        {
            "@id": "wd:Q22950221",
            "p:P131": "s:Q22950221-f653ccce-8f5f-4ed9-9cb3-0b805959b44a"
        },
        {
            "@id": "s:Q22950221-f653ccce-8f5f-4ed9-9cb3-0b805959b44a",
            "@type": [
                "wikibase:Statement",
                "wikibase:BestRank"
            ],
            "rank": "wikibase:PreferredRank",
            "ps:P131": "wd:Q21979856",
            "P580": "2016-01-01T00:00:00Z",
            "pqv:P580": "v:87dd190ea9468a16235287e31c520a6f"
        },
        {
            "@id": "wd:Q22950221",
            "p:P31": "s:Q22950221-2c85553e-3a00-4a61-a6f5-2a8602fc9dd2"
        },
        {
            "@id": "s:Q22950221-2c85553e-3a00-4a61-a6f5-2a8602fc9dd2",
            "@type": [
                "wikibase:Statement",
                "wikibase:BestRank"
            ],
            "rank": "wikibase:NormalRank",
            "ps:P31": "wd:Q108325",
            "wasDerivedFrom": "ref:d709174cc609072fbf310bb52ddfb7aa2332b473"
        },
        {
            "@id": "wd:Q22950221",
            "p:P373": "s:Q22950221-613E3C91-9DCB-4693-B1A0-A12831DC0E42"
        },
        {
            "@id": "s:Q22950221-613E3C91-9DCB-4693-B1A0-A12831DC0E42",
            "@type": [
                "wikibase:Statement",
                "wikibase:BestRank"
            ],
            "rank": "wikibase:NormalRank",
            "ps:P373": "Chapelle de Bethl\u00e9em (Aubevoye)"
        },
        {
            "@id": "wd:Q22950221",
            "p:P18": "s:Q22950221-7F85D0CB-C261-4A72-957B-9956189FD260"
        },
        {
            "@id": "s:Q22950221-7F85D0CB-C261-4A72-957B-9956189FD260",
            "@type": [
                "wikibase:Statement",
                "wikibase:BestRank"
            ],
            "rank": "wikibase:NormalRank",
            "ps:P18": "http://commons.wikimedia.org/wiki/Special:FilePath/Chapelle%20de%20Bethleem%20clocher%20nord%20ouest.jpg"
        },
        {
            "@id": "wd:Q22950221",
            "p:P149": "s:Q22950221-53BD1631-4951-49B9-AB94-F4FB663AB45A"
        },
        {
            "@id": "s:Q22950221-53BD1631-4951-49B9-AB94-F4FB663AB45A",
            "@type": [
                "wikibase:Statement",
                "wikibase:BestRank"
            ],
            "rank": "wikibase:NormalRank",
            "ps:P149": "wd:Q2864731",
            "wasDerivedFrom": "ref:95133b3ecb4e6cdbc3db2d789359b719b8f179dd"
        },
        {
            "@id": "wd:Q22950221",
            "p:P6375": "s:Q22950221-1d1b0b56-e560-45d5-a32c-c650e6c11ca8"
        },
        {
            "@id": "s:Q22950221-1d1b0b56-e560-45d5-a32c-c650e6c11ca8",
            "@type": [
                "wikibase:Statement",
                "wikibase:BestRank"
            ],
            "rank": "wikibase:NormalRank",
            "ps:P6375": {
                "@language": "fr",
                "@value": "Bethl\u00e9em"
            }
        },
        {
            "@id": "wd:Q22950221",
            "p:P571": "s:Q22950221-709292f1-46c1-bc25-a9ae-cbd5107547ab"
        },
        {
            "@id": "s:Q22950221-709292f1-46c1-bc25-a9ae-cbd5107547ab",
            "@type": [
                "wikibase:Statement",
                "wikibase:BestRank"
            ],
            "rank": "wikibase:NormalRank",
            "ps:P571": "1576-01-01T00:00:00Z",
            "psv:P571": "v:a3404febbaa35ad5b9d00f5a2aa00f0d",
            "wasDerivedFrom": "ref:8694f040823f99f781862b588a92a6c1b4242bbc"
        },
        {
            "@id": "wd:Q22950221",
            "p:P2671": "s:Q22950221-2B2F0E40-4D29-40A0-A6AE-6BB4827B9B91"
        },
        {
            "@id": "s:Q22950221-2B2F0E40-4D29-40A0-A6AE-6BB4827B9B91",
            "@type": [
                "wikibase:Statement",
                "wikibase:BestRank"
            ],
            "rank": "wikibase:NormalRank",
            "ps:P2671": "/g/11c1wm11wx",
            "psn:P2671": "http://g.co/kg/g/11c1wm11wx"
        },
        {
            "@id": "wd:Q22950221",
            "p:P140": "s:Q22950221-9202d12f-4747-52f5-45d9-236841bc31e4"
        },
        {
            "@id": "s:Q22950221-9202d12f-4747-52f5-45d9-236841bc31e4",
            "@type": [
                "wikibase:Statement",
                "wikibase:BestRank"
            ],
            "rank": "wikibase:NormalRank",
            "ps:P140": "wd:Q1841"
        },
        {
            "@id": "wd:Q22950221",
            "p:P5816": "s:Q22950221-89a63a09-48ce-7c04-10cd-1b53101020f9"
        },
        {
            "@id": "s:Q22950221-89a63a09-48ce-7c04-10cd-1b53101020f9",
            "@type": [
                "wikibase:Statement",
                "wikibase:BestRank"
            ],
            "rank": "wikibase:NormalRank",
            "ps:P5816": "wd:Q56557159"
        },
        {
            "@id": "wd:Q22950221",
            "p:P527": "s:Q22950221-7bc94b80-4b23-455b-d159-5ee4ac9694f6"
        },
        {
            "@id": "s:Q22950221-7bc94b80-4b23-455b-d159-5ee4ac9694f6",
            "@type": [
                "wikibase:Statement",
                "wikibase:BestRank"
            ],
            "rank": "wikibase:NormalRank",
            "ps:P527": "wd:Q113256661"
        },
        {
            "@id": "wd:Q22950221",
            "p:P186": "s:Q22950221-87a7aabb-4b45-9834-19e9-84fd9b28c347"
        },
        {
            "@id": "s:Q22950221-87a7aabb-4b45-9834-19e9-84fd9b28c347",
            "@type": [
                "wikibase:Statement",
                "wikibase:BestRank"
            ],
            "rank": "wikibase:NormalRank",
            "ps:P186": "wd:Q47401"
        },
        {
            "@id": "wd:Q22950221",
            "p:P1435": "s:Q22950221-5956e418-4bbc-b333-09af-d6b630f02857"
        },
        {
            "@id": "s:Q22950221-5956e418-4bbc-b333-09af-d6b630f02857",
            "@type": [
                "wikibase:Statement",
                "wikibase:BestRank"
            ],
            "rank": "wikibase:NormalRank",
            "ps:P1435": "wd:Q10387575",
            "P518": "wd:Q113256661",
            "wasDerivedFrom": "ref:d709174cc609072fbf310bb52ddfb7aa2332b473"
        },
        {
            "@id": "wd:Q22950221",
            "p:P112": "s:Q22950221-acccabd5-4aee-8d69-050e-d507e57a5ddb"
        },
        {
            "@id": "s:Q22950221-acccabd5-4aee-8d69-050e-d507e57a5ddb",
            "@type": [
                "wikibase:Statement",
                "wikibase:BestRank"
            ],
            "rank": "wikibase:NormalRank",
            "ps:P112": "wd:Q544166"
        },
        {
            "@id": "wd:Q22950221",
            "p:P138": "s:Q22950221-01f8753c-46e9-c7f4-d912-f323092a32fa"
        },
        {
            "@id": "s:Q22950221-01f8753c-46e9-c7f4-d912-f323092a32fa",
            "@type": [
                "wikibase:Statement",
                "wikibase:BestRank"
            ],
            "rank": "wikibase:NormalRank",
            "ps:P138": "wd:Q194504"
        },
        {
            "@id": "wd:Q22950221",
            "p:P3371": "s:Q22950221-b4ae4e2d-4636-96b5-0fdb-dfb81062b85b"
        },
        {
            "@id": "s:Q22950221-b4ae4e2d-4636-96b5-0fdb-dfb81062b85b",
            "@type": [
                "wikibase:Statement",
                "wikibase:BestRank"
            ],
            "rank": "wikibase:NormalRank",
            "ps:P3371": "178374"
        },
        {
            "@id": "wd:Q22950221",
            "p:P5775": "s:Q22950221-c54bbe8c-42eb-55d8-127c-4da2410d4803"
        },
        {
            "@id": "s:Q22950221-c54bbe8c-42eb-55d8-127c-4da2410d4803",
            "@type": [
                "wikibase:Statement",
                "wikibase:BestRank"
            ],
            "rank": "wikibase:NormalRank",
            "ps:P5775": "http://commons.wikimedia.org/wiki/Special:FilePath/Aubevoye%202016-10%20-%20Bethl%C3%A9em%20PIC%200660%2007.jpg"
        },
        {
            "@id": "wd:Q22950221",
            "label": [
                {
                    "@language": "fr",
                    "@value": "chapelle de Bethl\u00e9em"
                },
                {
                    "@language": "en",
                    "@value": "Chapelle de Bethl\u00e9em"
                },
                {
                    "@language": "nrm",
                    "@value": "Capelle de Bethl\u00e9em (Aubevoye)"
                },
                {
                    "@language": "oc",
                    "@value": "Cap\u00e8la de Betel\u00e8m (Aubevoye)"
                }
            ],
            "prefLabel": [
                {
                    "@language": "fr",
                    "@value": "chapelle de Bethl\u00e9em"
                },
                {
                    "@language": "en",
                    "@value": "Chapelle de Bethl\u00e9em"
                },
                {
                    "@language": "nrm",
                    "@value": "Capelle de Bethl\u00e9em (Aubevoye)"
                },
                {
                    "@language": "oc",
                    "@value": "Cap\u00e8la de Betel\u00e8m (Aubevoye)"
                }
            ],
            "name": [
                {
                    "@language": "fr",
                    "@value": "chapelle de Bethl\u00e9em"
                },
                {
                    "@language": "en",
                    "@value": "Chapelle de Bethl\u00e9em"
                },
                {
                    "@language": "nrm",
                    "@value": "Capelle de Bethl\u00e9em (Aubevoye)"
                },
                {
                    "@language": "oc",
                    "@value": "Cap\u00e8la de Betel\u00e8m (Aubevoye)"
                }
            ],
            "description": [
                {
                    "@language": "fr",
                    "@value": "chapelle situ\u00e9e dans l'Eure, en France"
                },
                {
                    "@language": "en",
                    "@value": "chapel located in Eure, in France"
                },
                {
                    "@language": "nl",
                    "@value": "kapel in Le Val-d'Hazey, Frankrijk"
                },
                {
                    "@language": "es",
                    "@value": "capilla situada en Eure, en Francia"
                },
                {
                    "@language": "de",
                    "@value": "Kapelle in Frankreich"
                }
            ]
        },
        {
            "@id": "wd:Q142",
            "@type": "wikibase:Item",
            "label": {
                "@language": "en",
                "@value": "France"
            },
            "prefLabel": {
                "@language": "en",
                "@value": "France"
            },
            "name": {
                "@language": "en",
                "@value": "France"
            },
            "description": {
                "@language": "en",
                "@value": "country in Western Europe"
            }
        },
        {
            "@id": "wd:P17",
            "@type": "wikibase:Property",
            "label": {
                "@language": "en",
                "@value": "country"
            },
            "prefLabel": {
                "@language": "en",
                "@value": "country"
            },
            "name": {
                "@language": "en",
                "@value": "country"
            },
            "description": {
                "@language": "en",
                "@value": "sovereign state of this item (not to be used for human beings)"
            },
            "propertyType": "http://wikiba.se/ontology#WikibaseItem",
            "directClaim": "wdt:P17",
            "claim": "p:P17",
            "statementProperty": "ps:P17",
            "statementValue": "psv:P17",
            "qualifier": "pq:P17",
            "qualifierValue": "pqv:P17",
            "reference": "pr:P17",
            "referenceValue": "prv:P17",
            "novalue": "wdno:P17"
        },
        {
            "@id": "p:P17",
            "@type": "owl:ObjectProperty"
        },
        {
            "@id": "psv:P17",
            "@type": "owl:ObjectProperty"
        },
        {
            "@id": "pqv:P17",
            "@type": "owl:ObjectProperty"
        },
        {
            "@id": "prv:P17",
            "@type": "owl:ObjectProperty"
        },
        {
            "@id": "wdt:P17",
            "@type": "owl:ObjectProperty"
        },
        {
            "@id": "ps:P17",
            "@type": "owl:ObjectProperty"
        },
        {
            "@id": "pq:P17",
            "@type": "owl:ObjectProperty"
        },
        {
            "@id": "pr:P17",
            "@type": "owl:ObjectProperty"
        },
        {
            "@id": "wdno:P17",
            "@type": "owl:Class",
            "complementOf": "_:67baa1dbbc8d4f6b0b3d4a74a3ee0290"
        },
        {
            "@id": "_:67baa1dbbc8d4f6b0b3d4a74a3ee0290",
            "@type": "owl:Restriction",
            "onProperty": "wdt:P17",
            "someValuesFrom": "owl:Thing"
        },
        {
            "@id": "wd:P380",
            "@type": "wikibase:Property",
            "label": {
                "@language": "en",
                "@value": "M\u00e9rim\u00e9e ID"
            },
            "prefLabel": {
                "@language": "en",
                "@value": "M\u00e9rim\u00e9e ID"
            },
            "name": {
                "@language": "en",
                "@value": "M\u00e9rim\u00e9e ID"
            },
            "description": {
                "@language": "en",
                "@value": "identifier for a monument in the M\u00e9rim\u00e9e database of French cultural heritage"
            },
            "propertyType": "http://wikiba.se/ontology#ExternalId",
            "directClaim": "wdt:P380",
            "claim": "p:P380",
            "statementProperty": "ps:P380",
            "statementValue": "psv:P380",
            "qualifier": "pq:P380",
            "qualifierValue": "pqv:P380",
            "reference": "pr:P380",
            "referenceValue": "prv:P380",
            "novalue": "wdno:P380",
            "directClaimNormalized": "wdtn:P380",
            "statementValueNormalized": "psn:P380",
            "qualifierValueNormalized": "pqn:P380",
            "referenceValueNormalized": "prn:P380"
        },
        {
            "@id": "p:P380",
            "@type": "owl:ObjectProperty"
        },
        {
            "@id": "psv:P380",
            "@type": "owl:ObjectProperty"
        },
        {
            "@id": "pqv:P380",
            "@type": "owl:ObjectProperty"
        },
        {
            "@id": "prv:P380",
            "@type": "owl:ObjectProperty"
        },
        {
            "@id": "wdt:P380",
            "@type": "owl:DatatypeProperty"
        },
        {
            "@id": "ps:P380",
            "@type": "owl:DatatypeProperty"
        },
        {
            "@id": "pq:P380",
            "@type": "owl:DatatypeProperty"
        },
        {
            "@id": "pr:P380",
            "@type": "owl:DatatypeProperty"
        },
        {
            "@id": "psn:P380",
            "@type": "owl:ObjectProperty"
        },
        {
            "@id": "pqn:P380",
            "@type": "owl:ObjectProperty"
        },
        {
            "@id": "prn:P380",
            "@type": "owl:ObjectProperty"
        },
        {
            "@id": "wdtn:P380",
            "@type": "owl:ObjectProperty"
        },
        {
            "@id": "wdno:P380",
            "@type": "owl:Class",
            "complementOf": "_:c12a22358f0a184a04bb4cb559a1ec07"
        },
        {
            "@id": "_:c12a22358f0a184a04bb4cb559a1ec07",
            "@type": "owl:Restriction",
            "onProperty": "wdt:P380",
            "someValuesFrom": "owl:Thing"
        },
        {
            "@id": "wd:P625",
            "@type": "wikibase:Property",
            "label": {
                "@language": "en",
                "@value": "coordinate location"
            },
            "prefLabel": {
                "@language": "en",
                "@value": "coordinate location"
            },
            "name": {
                "@language": "en",
                "@value": "coordinate location"
            },
            "description": {
                "@language": "en",
                "@value": "geocoordinates of the subject. For Earth, please note that only WGS84 coordinating system is supported at the moment"
            },
            "propertyType": "http://wikiba.se/ontology#GlobeCoordinate",
            "directClaim": "wdt:P625",
            "claim": "p:P625",
            "statementProperty": "ps:P625",
            "statementValue": "psv:P625",
            "qualifier": "pq:P625",
            "qualifierValue": "pqv:P625",
            "reference": "pr:P625",
            "referenceValue": "prv:P625",
            "novalue": "wdno:P625"
        },
        {
            "@id": "p:P625",
            "@type": "owl:ObjectProperty"
        },
        {
            "@id": "psv:P625",
            "@type": "owl:ObjectProperty"
        },
        {
            "@id": "pqv:P625",
            "@type": "owl:ObjectProperty"
        },
        {
            "@id": "prv:P625",
            "@type": "owl:ObjectProperty"
        },
        {
            "@id": "wdt:P625",
            "@type": "owl:DatatypeProperty"
        },
        {
            "@id": "ps:P625",
            "@type": "owl:DatatypeProperty"
        },
        {
            "@id": "pq:P625",
            "@type": "owl:DatatypeProperty"
        },
        {
            "@id": "pr:P625",
            "@type": "owl:DatatypeProperty"
        },
        {
            "@id": "wdno:P625",
            "@type": "owl:Class",
            "complementOf": "_:098a7705e988116e3a454eda03aef6ad"
        },
        {
            "@id": "_:098a7705e988116e3a454eda03aef6ad",
            "@type": "owl:Restriction",
            "onProperty": "wdt:P625",
            "someValuesFrom": "owl:Thing"
        },
        {
            "@id": "wd:Q21979856",
            "@type": "wikibase:Item",
            "label": {
                "@language": "en",
                "@value": "Le Val-d'Hazey"
            },
            "prefLabel": {
                "@language": "en",
                "@value": "Le Val-d'Hazey"
            },
            "name": {
                "@language": "en",
                "@value": "Le Val-d'Hazey"
            },
            "description": {
                "@language": "en",
                "@value": "commune in Eure, France"
            }
        },
        {
            "@id": "wd:P131",
            "@type": "wikibase:Property",
            "label": {
                "@language": "en",
                "@value": "located in the administrative territorial entity"
            },
            "prefLabel": {
                "@language": "en",
                "@value": "located in the administrative territorial entity"
            },
            "name": {
                "@language": "en",
                "@value": "located in the administrative territorial entity"
            },
            "description": {
                "@language": "en",
                "@value": "the item is located on the territory of the following administrative entity. Use P276 for specifying locations that are non-administrative places and for items about events. Use P1382 if the item falls only partially into the administrative entity."
            },
            "propertyType": "http://wikiba.se/ontology#WikibaseItem",
            "directClaim": "wdt:P131",
            "claim": "p:P131",
            "statementProperty": "ps:P131",
            "statementValue": "psv:P131",
            "qualifier": "pq:P131",
            "qualifierValue": "pqv:P131",
            "reference": "pr:P131",
            "referenceValue": "prv:P131",
            "novalue": "wdno:P131"
        },
        {
            "@id": "p:P131",
            "@type": "owl:ObjectProperty"
        },
        {
            "@id": "psv:P131",
            "@type": "owl:ObjectProperty"
        },
        {
            "@id": "pqv:P131",
            "@type": "owl:ObjectProperty"
        },
        {
            "@id": "prv:P131",
            "@type": "owl:ObjectProperty"
        },
        {
            "@id": "wdt:P131",
            "@type": "owl:ObjectProperty"
        },
        {
            "@id": "ps:P131",
            "@type": "owl:ObjectProperty"
        },
        {
            "@id": "pq:P131",
            "@type": "owl:ObjectProperty"
        },
        {
            "@id": "pr:P131",
            "@type": "owl:ObjectProperty"
        },
        {
            "@id": "wdno:P131",
            "@type": "owl:Class",
            "complementOf": "_:1d2a8f0c3b3451be4d4228f97153e08d"
        },
        {
            "@id": "_:1d2a8f0c3b3451be4d4228f97153e08d",
            "@type": "owl:Restriction",
            "onProperty": "wdt:P131",
            "someValuesFrom": "owl:Thing"
        },
        {
            "@id": "wd:Q108325",
            "@type": "wikibase:Item",
            "label": {
                "@language": "en",
                "@value": "chapel"
            },
            "prefLabel": {
                "@language": "en",
                "@value": "chapel"
            },
            "name": {
                "@language": "en",
                "@value": "chapel"
            },
            "description": {
                "@language": "en",
                "@value": "small place, building or room of Christian fellowship or worship, may be attached or not to a larger institution or part of a building"
            }
        },
        {
            "@id": "wd:P31",
            "@type": "wikibase:Property",
            "label": {
                "@language": "en",
                "@value": "instance of"
            },
            "prefLabel": {
                "@language": "en",
                "@value": "instance of"
            },
            "name": {
                "@language": "en",
                "@value": "instance of"
            },
            "description": {
                "@language": "en",
                "@value": "that class of which this subject is a particular example and member; different from P279 (subclass of); for example: K2 is an instance of mountain; volcano is a subclass of mountain (and an instance of volcanic landform)"
            },
            "propertyType": "http://wikiba.se/ontology#WikibaseItem",
            "directClaim": "wdt:P31",
            "claim": "p:P31",
            "statementProperty": "ps:P31",
            "statementValue": "psv:P31",
            "qualifier": "pq:P31",
            "qualifierValue": "pqv:P31",
            "reference": "pr:P31",
            "referenceValue": "prv:P31",
            "novalue": "wdno:P31"
        },
        {
            "@id": "p:P31",
            "@type": "owl:ObjectProperty"
        },
        {
            "@id": "psv:P31",
            "@type": "owl:ObjectProperty"
        },
        {
            "@id": "pqv:P31",
            "@type": "owl:ObjectProperty"
        },
        {
            "@id": "prv:P31",
            "@type": "owl:ObjectProperty"
        },
        {
            "@id": "wdt:P31",
            "@type": "owl:ObjectProperty"
        },
        {
            "@id": "ps:P31",
            "@type": "owl:ObjectProperty"
        },
        {
            "@id": "pq:P31",
            "@type": "owl:ObjectProperty"
        },
        {
            "@id": "pr:P31",
            "@type": "owl:ObjectProperty"
        },
        {
            "@id": "wdno:P31",
            "@type": "owl:Class",
            "complementOf": "_:0b8bd71b926a65ca3fa72e5d9103e4d6"
        },
        {
            "@id": "_:0b8bd71b926a65ca3fa72e5d9103e4d6",
            "@type": "owl:Restriction",
            "onProperty": "wdt:P31",
            "someValuesFrom": "owl:Thing"
        },
        {
            "@id": "wd:P373",
            "@type": "wikibase:Property",
            "label": {
                "@language": "en",
                "@value": "Commons category"
            },
            "prefLabel": {
                "@language": "en",
                "@value": "Commons category"
            },
            "name": {
                "@language": "en",
                "@value": "Commons category"
            },
            "description": {
                "@language": "en",
                "@value": "name of the Wikimedia Commons category containing files related to this item (without the prefix \"Category:\")"
            },
            "propertyType": "http://wikiba.se/ontology#String",
            "directClaim": "wdt:P373",
            "claim": "p:P373",
            "statementProperty": "ps:P373",
            "statementValue": "psv:P373",
            "qualifier": "pq:P373",
            "qualifierValue": "pqv:P373",
            "reference": "pr:P373",
            "referenceValue": "prv:P373",
            "novalue": "wdno:P373"
        },
        {
            "@id": "p:P373",
            "@type": "owl:ObjectProperty"
        },
        {
            "@id": "psv:P373",
            "@type": "owl:ObjectProperty"
        },
        {
            "@id": "pqv:P373",
            "@type": "owl:ObjectProperty"
        },
        {
            "@id": "prv:P373",
            "@type": "owl:ObjectProperty"
        },
        {
            "@id": "wdt:P373",
            "@type": "owl:DatatypeProperty"
        },
        {
            "@id": "ps:P373",
            "@type": "owl:DatatypeProperty"
        },
        {
            "@id": "pq:P373",
            "@type": "owl:DatatypeProperty"
        },
        {
            "@id": "pr:P373",
            "@type": "owl:DatatypeProperty"
        },
        {
            "@id": "wdno:P373",
            "@type": "owl:Class",
            "complementOf": "_:3de19c92e209926f02f215095eb4fd12"
        },
        {
            "@id": "_:3de19c92e209926f02f215095eb4fd12",
            "@type": "owl:Restriction",
            "onProperty": "wdt:P373",
            "someValuesFrom": "owl:Thing"
        },
        {
            "@id": "wd:P18",
            "@type": "wikibase:Property",
            "label": {
                "@language": "en",
                "@value": "image"
            },
            "prefLabel": {
                "@language": "en",
                "@value": "image"
            },
            "name": {
                "@language": "en",
                "@value": "image"
            },
            "description": {
                "@language": "en",
                "@value": "image of relevant illustration of the subject; if available, also use more specific properties (sample: coat of arms image, locator map, flag image, signature image, logo image, collage image)"
            },
            "propertyType": "http://wikiba.se/ontology#CommonsMedia",
            "directClaim": "wdt:P18",
            "claim": "p:P18",
            "statementProperty": "ps:P18",
            "statementValue": "psv:P18",
            "qualifier": "pq:P18",
            "qualifierValue": "pqv:P18",
            "reference": "pr:P18",
            "referenceValue": "prv:P18",
            "novalue": "wdno:P18"
        },
        {
            "@id": "p:P18",
            "@type": "owl:ObjectProperty"
        },
        {
            "@id": "psv:P18",
            "@type": "owl:ObjectProperty"
        },
        {
            "@id": "pqv:P18",
            "@type": "owl:ObjectProperty"
        },
        {
            "@id": "prv:P18",
            "@type": "owl:ObjectProperty"
        },
        {
            "@id": "wdt:P18",
            "@type": "owl:ObjectProperty"
        },
        {
            "@id": "ps:P18",
            "@type": "owl:ObjectProperty"
        },
        {
            "@id": "pq:P18",
            "@type": "owl:ObjectProperty"
        },
        {
            "@id": "pr:P18",
            "@type": "owl:ObjectProperty"
        },
        {
            "@id": "wdno:P18",
            "@type": "owl:Class",
            "complementOf": "_:90353c5ec33a5dc569985590a17a3551"
        },
        {
            "@id": "_:90353c5ec33a5dc569985590a17a3551",
            "@type": "owl:Restriction",
            "onProperty": "wdt:P18",
            "someValuesFrom": "owl:Thing"
        },
        {
            "@id": "wd:Q2864731",
            "@type": "wikibase:Item",
            "label": {
                "@language": "en",
                "@value": "Romanesque architecture of Provence"
            },
            "prefLabel": {
                "@language": "en",
                "@value": "Romanesque architecture of Provence"
            },
            "name": {
                "@language": "en",
                "@value": "Romanesque architecture of Provence"
            }
        },
        {
            "@id": "wd:P149",
            "@type": "wikibase:Property",
            "label": {
                "@language": "en",
                "@value": "architectural style"
            },
            "prefLabel": {
                "@language": "en",
                "@value": "architectural style"
            },
            "name": {
                "@language": "en",
                "@value": "architectural style"
            },
            "description": {
                "@language": "en",
                "@value": "architectural style of a structure"
            },
            "propertyType": "http://wikiba.se/ontology#WikibaseItem",
            "directClaim": "wdt:P149",
            "claim": "p:P149",
            "statementProperty": "ps:P149",
            "statementValue": "psv:P149",
            "qualifier": "pq:P149",
            "qualifierValue": "pqv:P149",
            "reference": "pr:P149",
            "referenceValue": "prv:P149",
            "novalue": "wdno:P149"
        },
        {
            "@id": "p:P149",
            "@type": "owl:ObjectProperty"
        },
        {
            "@id": "psv:P149",
            "@type": "owl:ObjectProperty"
        },
        {
            "@id": "pqv:P149",
            "@type": "owl:ObjectProperty"
        },
        {
            "@id": "prv:P149",
            "@type": "owl:ObjectProperty"
        },
        {
            "@id": "wdt:P149",
            "@type": "owl:ObjectProperty"
        },
        {
            "@id": "ps:P149",
            "@type": "owl:ObjectProperty"
        },
        {
            "@id": "pq:P149",
            "@type": "owl:ObjectProperty"
        },
        {
            "@id": "pr:P149",
            "@type": "owl:ObjectProperty"
        },
        {
            "@id": "wdno:P149",
            "@type": "owl:Class",
            "complementOf": "_:96bbc849a9227a3cc19c30b078b5a8db"
        },
        {
            "@id": "_:96bbc849a9227a3cc19c30b078b5a8db",
            "@type": "owl:Restriction",
            "onProperty": "wdt:P149",
            "someValuesFrom": "owl:Thing"
        },
        {
            "@id": "wd:P6375",
            "@type": "wikibase:Property",
            "label": {
                "@language": "en",
                "@value": "street address"
            },
            "prefLabel": {
                "@language": "en",
                "@value": "street address"
            },
            "name": {
                "@language": "en",
                "@value": "street address"
            },
            "description": {
                "@language": "en",
                "@value": "full street address where subject is located. Include building number, city/locality, post code, but not country; use also P669 if the street has its own separate item"
            },
            "propertyType": "http://wikiba.se/ontology#Monolingualtext",
            "directClaim": "wdt:P6375",
            "claim": "p:P6375",
            "statementProperty": "ps:P6375",
            "statementValue": "psv:P6375",
            "qualifier": "pq:P6375",
            "qualifierValue": "pqv:P6375",
            "reference": "pr:P6375",
            "referenceValue": "prv:P6375",
            "novalue": "wdno:P6375"
        },
        {
            "@id": "p:P6375",
            "@type": "owl:ObjectProperty"
        },
        {
            "@id": "psv:P6375",
            "@type": "owl:ObjectProperty"
        },
        {
            "@id": "pqv:P6375",
            "@type": "owl:ObjectProperty"
        },
        {
            "@id": "prv:P6375",
            "@type": "owl:ObjectProperty"
        },
        {
            "@id": "wdt:P6375",
            "@type": "owl:DatatypeProperty"
        },
        {
            "@id": "ps:P6375",
            "@type": "owl:DatatypeProperty"
        },
        {
            "@id": "pq:P6375",
            "@type": "owl:DatatypeProperty"
        },
        {
            "@id": "pr:P6375",
            "@type": "owl:DatatypeProperty"
        },
        {
            "@id": "wdno:P6375",
            "@type": "owl:Class",
            "complementOf": "_:a98ab2116a68ecee7ed756ce61125936"
        },
        {
            "@id": "_:a98ab2116a68ecee7ed756ce61125936",
            "@type": "owl:Restriction",
            "onProperty": "wdt:P6375",
            "someValuesFrom": "owl:Thing"
        },
        {
            "@id": "wd:P571",
            "@type": "wikibase:Property",
            "label": {
                "@language": "en",
                "@value": "inception"
            },
            "prefLabel": {
                "@language": "en",
                "@value": "inception"
            },
            "name": {
                "@language": "en",
                "@value": "inception"
            },
            "description": {
                "@language": "en",
                "@value": "time when an entity begins to exist; for date of official opening use P1619"
            },
            "propertyType": "http://wikiba.se/ontology#Time",
            "directClaim": "wdt:P571",
            "claim": "p:P571",
            "statementProperty": "ps:P571",
            "statementValue": "psv:P571",
            "qualifier": "pq:P571",
            "qualifierValue": "pqv:P571",
            "reference": "pr:P571",
            "referenceValue": "prv:P571",
            "novalue": "wdno:P571"
        },
        {
            "@id": "p:P571",
            "@type": "owl:ObjectProperty"
        },
        {
            "@id": "psv:P571",
            "@type": "owl:ObjectProperty"
        },
        {
            "@id": "pqv:P571",
            "@type": "owl:ObjectProperty"
        },
        {
            "@id": "prv:P571",
            "@type": "owl:ObjectProperty"
        },
        {
            "@id": "wdt:P571",
            "@type": "owl:DatatypeProperty"
        },
        {
            "@id": "ps:P571",
            "@type": "owl:DatatypeProperty"
        },
        {
            "@id": "pq:P571",
            "@type": "owl:DatatypeProperty"
        },
        {
            "@id": "pr:P571",
            "@type": "owl:DatatypeProperty"
        },
        {
            "@id": "wdno:P571",
            "@type": "owl:Class",
            "complementOf": "_:ed4d9507645e2210d8e4ed14d3266267"
        },
        {
            "@id": "_:ed4d9507645e2210d8e4ed14d3266267",
            "@type": "owl:Restriction",
            "onProperty": "wdt:P571",
            "someValuesFrom": "owl:Thing"
        },
        {
            "@id": "wd:P2671",
            "@type": "wikibase:Property",
            "label": {
                "@language": "en",
                "@value": "Google Knowledge Graph ID"
            },
            "prefLabel": {
                "@language": "en",
                "@value": "Google Knowledge Graph ID"
            },
            "name": {
                "@language": "en",
                "@value": "Google Knowledge Graph ID"
            },
            "description": {
                "@language": "en",
                "@value": "identifier for Google Knowledge Graph API (application programming interface), starting with \"/g/\". IDs starting with \"/m/\" are Freebase IDs (P646)"
            },
            "propertyType": "http://wikiba.se/ontology#ExternalId",
            "directClaim": "wdt:P2671",
            "claim": "p:P2671",
            "statementProperty": "ps:P2671",
            "statementValue": "psv:P2671",
            "qualifier": "pq:P2671",
            "qualifierValue": "pqv:P2671",
            "reference": "pr:P2671",
            "referenceValue": "prv:P2671",
            "novalue": "wdno:P2671",
            "directClaimNormalized": "wdtn:P2671",
            "statementValueNormalized": "psn:P2671",
            "qualifierValueNormalized": "pqn:P2671",
            "referenceValueNormalized": "prn:P2671"
        },
        {
            "@id": "p:P2671",
            "@type": "owl:ObjectProperty"
        },
        {
            "@id": "psv:P2671",
            "@type": "owl:ObjectProperty"
        },
        {
            "@id": "pqv:P2671",
            "@type": "owl:ObjectProperty"
        },
        {
            "@id": "prv:P2671",
            "@type": "owl:ObjectProperty"
        },
        {
            "@id": "wdt:P2671",
            "@type": "owl:DatatypeProperty"
        },
        {
            "@id": "ps:P2671",
            "@type": "owl:DatatypeProperty"
        },
        {
            "@id": "pq:P2671",
            "@type": "owl:DatatypeProperty"
        },
        {
            "@id": "pr:P2671",
            "@type": "owl:DatatypeProperty"
        },
        {
            "@id": "psn:P2671",
            "@type": "owl:ObjectProperty"
        },
        {
            "@id": "pqn:P2671",
            "@type": "owl:ObjectProperty"
        },
        {
            "@id": "prn:P2671",
            "@type": "owl:ObjectProperty"
        },
        {
            "@id": "wdtn:P2671",
            "@type": "owl:ObjectProperty"
        },
        {
            "@id": "wdno:P2671",
            "@type": "owl:Class",
            "complementOf": "_:65accf8c5265233a873cf53510c73fa5"
        },
        {
            "@id": "_:65accf8c5265233a873cf53510c73fa5",
            "@type": "owl:Restriction",
            "onProperty": "wdt:P2671",
            "someValuesFrom": "owl:Thing"
        },
        {
            "@id": "wd:Q1841",
            "@type": "wikibase:Item",
            "label": {
                "@language": "en",
                "@value": "Catholicism"
            },
            "prefLabel": {
                "@language": "en",
                "@value": "Catholicism"
            },
            "name": {
                "@language": "en",
                "@value": "Catholicism"
            },
            "description": {
                "@language": "en",
                "@value": "Christian doctrine professed by the Catholic Church"
            }
        },
        {
            "@id": "wd:P140",
            "@type": "wikibase:Property",
            "label": {
                "@language": "en",
                "@value": "religion or worldview"
            },
            "prefLabel": {
                "@language": "en",
                "@value": "religion or worldview"
            },
            "name": {
                "@language": "en",
                "@value": "religion or worldview"
            },
            "description": {
                "@language": "en",
                "@value": "religion of a person, organization or religious building, or associated with this subject"
            },
            "propertyType": "http://wikiba.se/ontology#WikibaseItem",
            "directClaim": "wdt:P140",
            "claim": "p:P140",
            "statementProperty": "ps:P140",
            "statementValue": "psv:P140",
            "qualifier": "pq:P140",
            "qualifierValue": "pqv:P140",
            "reference": "pr:P140",
            "referenceValue": "prv:P140",
            "novalue": "wdno:P140"
        },
        {
            "@id": "p:P140",
            "@type": "owl:ObjectProperty"
        },
        {
            "@id": "psv:P140",
            "@type": "owl:ObjectProperty"
        },
        {
            "@id": "pqv:P140",
            "@type": "owl:ObjectProperty"
        },
        {
            "@id": "prv:P140",
            "@type": "owl:ObjectProperty"
        },
        {
            "@id": "wdt:P140",
            "@type": "owl:ObjectProperty"
        },
        {
            "@id": "ps:P140",
            "@type": "owl:ObjectProperty"
        },
        {
            "@id": "pq:P140",
            "@type": "owl:ObjectProperty"
        },
        {
            "@id": "pr:P140",
            "@type": "owl:ObjectProperty"
        },
        {
            "@id": "wdno:P140",
            "@type": "owl:Class",
            "complementOf": "_:3bbbd7673af9946aba0ac3fb78805fae"
        },
        {
            "@id": "_:3bbbd7673af9946aba0ac3fb78805fae",
            "@type": "owl:Restriction",
            "onProperty": "wdt:P140",
            "someValuesFrom": "owl:Thing"
        },
        {
            "@id": "wd:Q56557159",
            "@type": "wikibase:Item",
            "label": {
                "@language": "en",
                "@value": "ruin"
            },
            "prefLabel": {
                "@language": "en",
                "@value": "ruin"
            },
            "name": {
                "@language": "en",
                "@value": "ruin"
            },
            "description": {
                "@language": "en",
                "@value": "state of being a ruin"
            }
        },
        {
            "@id": "wd:P5816",
            "@type": "wikibase:Property",
            "label": {
                "@language": "en",
                "@value": "state of conservation"
            },
            "prefLabel": {
                "@language": "en",
                "@value": "state of conservation"
            },
            "name": {
                "@language": "en",
                "@value": "state of conservation"
            },
            "description": {
                "@language": "en",
                "@value": "to indicate state of conservation of a building, monument, etc. It is not related with its heritage protection (P1435), but to its present state of conservation. Ex.: ruinous, demolished, correct, etc."
            },
            "propertyType": "http://wikiba.se/ontology#WikibaseItem",
            "directClaim": "wdt:P5816",
            "claim": "p:P5816",
            "statementProperty": "ps:P5816",
            "statementValue": "psv:P5816",
            "qualifier": "pq:P5816",
            "qualifierValue": "pqv:P5816",
            "reference": "pr:P5816",
            "referenceValue": "prv:P5816",
            "novalue": "wdno:P5816"
        },
        {
            "@id": "p:P5816",
            "@type": "owl:ObjectProperty"
        },
        {
            "@id": "psv:P5816",
            "@type": "owl:ObjectProperty"
        },
        {
            "@id": "pqv:P5816",
            "@type": "owl:ObjectProperty"
        },
        {
            "@id": "prv:P5816",
            "@type": "owl:ObjectProperty"
        },
        {
            "@id": "wdt:P5816",
            "@type": "owl:ObjectProperty"
        },
        {
            "@id": "ps:P5816",
            "@type": "owl:ObjectProperty"
        },
        {
            "@id": "pq:P5816",
            "@type": "owl:ObjectProperty"
        },
        {
            "@id": "pr:P5816",
            "@type": "owl:ObjectProperty"
        },
        {
            "@id": "wdno:P5816",
            "@type": "owl:Class",
            "complementOf": "_:cae6abf12e140c6381bbb706ee030db0"
        },
        {
            "@id": "_:cae6abf12e140c6381bbb706ee030db0",
            "@type": "owl:Restriction",
            "onProperty": "wdt:P5816",
            "someValuesFrom": "owl:Thing"
        },
        {
            "@id": "wd:Q113256661",
            "@type": "wikibase:Item"
        },
        {
            "@id": "wd:P527",
            "@type": "wikibase:Property",
            "label": {
                "@language": "en",
                "@value": "has part(s)"
            },
            "prefLabel": {
                "@language": "en",
                "@value": "has part(s)"
            },
            "name": {
                "@language": "en",
                "@value": "has part(s)"
            },
            "description": {
                "@language": "en",
                "@value": "part of this subject; inverse property of \"part of\" (P361). See also \"has parts of the class\" (P2670)."
            },
            "propertyType": "http://wikiba.se/ontology#WikibaseItem",
            "directClaim": "wdt:P527",
            "claim": "p:P527",
            "statementProperty": "ps:P527",
            "statementValue": "psv:P527",
            "qualifier": "pq:P527",
            "qualifierValue": "pqv:P527",
            "reference": "pr:P527",
            "referenceValue": "prv:P527",
            "novalue": "wdno:P527"
        },
        {
            "@id": "p:P527",
            "@type": "owl:ObjectProperty"
        },
        {
            "@id": "psv:P527",
            "@type": "owl:ObjectProperty"
        },
        {
            "@id": "pqv:P527",
            "@type": "owl:ObjectProperty"
        },
        {
            "@id": "prv:P527",
            "@type": "owl:ObjectProperty"
        },
        {
            "@id": "wdt:P527",
            "@type": "owl:ObjectProperty"
        },
        {
            "@id": "ps:P527",
            "@type": "owl:ObjectProperty"
        },
        {
            "@id": "pq:P527",
            "@type": "owl:ObjectProperty"
        },
        {
            "@id": "pr:P527",
            "@type": "owl:ObjectProperty"
        },
        {
            "@id": "wdno:P527",
            "@type": "owl:Class",
            "complementOf": "_:c508fd90817ec28651ec025cc3117403"
        },
        {
            "@id": "_:c508fd90817ec28651ec025cc3117403",
            "@type": "owl:Restriction",
            "onProperty": "wdt:P527",
            "someValuesFrom": "owl:Thing"
        },
        {
            "@id": "wd:Q47401",
            "@type": "wikibase:Item",
            "label": {
                "@language": "en",
                "@value": "rubble masonry"
            },
            "prefLabel": {
                "@language": "en",
                "@value": "rubble masonry"
            },
            "name": {
                "@language": "en",
                "@value": "rubble masonry"
            },
            "description": {
                "@language": "en",
                "@value": "rough, unhewn stone set in mortar, but not laid in regular courses"
            }
        },
        {
            "@id": "wd:P186",
            "@type": "wikibase:Property",
            "label": {
                "@language": "en",
                "@value": "made from material"
            },
            "prefLabel": {
                "@language": "en",
                "@value": "made from material"
            },
            "name": {
                "@language": "en",
                "@value": "made from material"
            },
            "description": {
                "@language": "en",
                "@value": "material the subject or the object is made of or derived from (do not confuse with P10672 which is used for processes)"
            },
            "propertyType": "http://wikiba.se/ontology#WikibaseItem",
            "directClaim": "wdt:P186",
            "claim": "p:P186",
            "statementProperty": "ps:P186",
            "statementValue": "psv:P186",
            "qualifier": "pq:P186",
            "qualifierValue": "pqv:P186",
            "reference": "pr:P186",
            "referenceValue": "prv:P186",
            "novalue": "wdno:P186"
        },
        {
            "@id": "p:P186",
            "@type": "owl:ObjectProperty"
        },
        {
            "@id": "psv:P186",
            "@type": "owl:ObjectProperty"
        },
        {
            "@id": "pqv:P186",
            "@type": "owl:ObjectProperty"
        },
        {
            "@id": "prv:P186",
            "@type": "owl:ObjectProperty"
        },
        {
            "@id": "wdt:P186",
            "@type": "owl:ObjectProperty"
        },
        {
            "@id": "ps:P186",
            "@type": "owl:ObjectProperty"
        },
        {
            "@id": "pq:P186",
            "@type": "owl:ObjectProperty"
        },
        {
            "@id": "pr:P186",
            "@type": "owl:ObjectProperty"
        },
        {
            "@id": "wdno:P186",
            "@type": "owl:Class",
            "complementOf": "_:5b4814b34f39cbeb8f47994d89688b8b"
        },
        {
            "@id": "_:5b4814b34f39cbeb8f47994d89688b8b",
            "@type": "owl:Restriction",
            "onProperty": "wdt:P186",
            "someValuesFrom": "owl:Thing"
        },
        {
            "@id": "wd:Q10387575",
            "@type": "wikibase:Item",
            "label": {
                "@language": "en",
                "@value": "registered historic monument"
            },
            "prefLabel": {
                "@language": "en",
                "@value": "registered historic monument"
            },
            "name": {
                "@language": "en",
                "@value": "registered historic monument"
            },
            "description": {
                "@language": "en",
                "@value": "national heritage site in France"
            }
        },
        {
            "@id": "wd:P1435",
            "@type": "wikibase:Property",
            "label": {
                "@language": "en",
                "@value": "heritage designation"
            },
            "prefLabel": {
                "@language": "en",
                "@value": "heritage designation"
            },
            "name": {
                "@language": "en",
                "@value": "heritage designation"
            },
            "description": {
                "@language": "en",
                "@value": "heritage designation of a cultural or natural site"
            },
            "propertyType": "http://wikiba.se/ontology#WikibaseItem",
            "directClaim": "wdt:P1435",
            "claim": "p:P1435",
            "statementProperty": "ps:P1435",
            "statementValue": "psv:P1435",
            "qualifier": "pq:P1435",
            "qualifierValue": "pqv:P1435",
            "reference": "pr:P1435",
            "referenceValue": "prv:P1435",
            "novalue": "wdno:P1435"
        },
        {
            "@id": "p:P1435",
            "@type": "owl:ObjectProperty"
        },
        {
            "@id": "psv:P1435",
            "@type": "owl:ObjectProperty"
        },
        {
            "@id": "pqv:P1435",
            "@type": "owl:ObjectProperty"
        },
        {
            "@id": "prv:P1435",
            "@type": "owl:ObjectProperty"
        },
        {
            "@id": "wdt:P1435",
            "@type": "owl:ObjectProperty"
        },
        {
            "@id": "ps:P1435",
            "@type": "owl:ObjectProperty"
        },
        {
            "@id": "pq:P1435",
            "@type": "owl:ObjectProperty"
        },
        {
            "@id": "pr:P1435",
            "@type": "owl:ObjectProperty"
        },
        {
            "@id": "wdno:P1435",
            "@type": "owl:Class",
            "complementOf": "_:7726c7130bf9061bc4c5d14efa209631"
        },
        {
            "@id": "_:7726c7130bf9061bc4c5d14efa209631",
            "@type": "owl:Restriction",
            "onProperty": "wdt:P1435",
            "someValuesFrom": "owl:Thing"
        },
        {
            "@id": "wd:Q544166",
            "@type": "wikibase:Item",
            "label": {
                "@language": "en",
                "@value": "Charles, Cardinal de Bourbon"
            },
            "prefLabel": {
                "@language": "en",
                "@value": "Charles, Cardinal de Bourbon"
            },
            "name": {
                "@language": "en",
                "@value": "Charles, Cardinal de Bourbon"
            },
            "description": {
                "@language": "en",
                "@value": "Catholic cardinal"
            }
        },
        {
            "@id": "wd:P112",
            "@type": "wikibase:Property",
            "label": {
                "@language": "en",
                "@value": "founded by"
            },
            "prefLabel": {
                "@language": "en",
                "@value": "founded by"
            },
            "name": {
                "@language": "en",
                "@value": "founded by"
            },
            "description": {
                "@language": "en",
                "@value": "founder or co-founder of this organization, religion or place"
            },
            "propertyType": "http://wikiba.se/ontology#WikibaseItem",
            "directClaim": "wdt:P112",
            "claim": "p:P112",
            "statementProperty": "ps:P112",
            "statementValue": "psv:P112",
            "qualifier": "pq:P112",
            "qualifierValue": "pqv:P112",
            "reference": "pr:P112",
            "referenceValue": "prv:P112",
            "novalue": "wdno:P112"
        },
        {
            "@id": "p:P112",
            "@type": "owl:ObjectProperty"
        },
        {
            "@id": "psv:P112",
            "@type": "owl:ObjectProperty"
        },
        {
            "@id": "pqv:P112",
            "@type": "owl:ObjectProperty"
        },
        {
            "@id": "prv:P112",
            "@type": "owl:ObjectProperty"
        },
        {
            "@id": "wdt:P112",
            "@type": "owl:ObjectProperty"
        },
        {
            "@id": "ps:P112",
            "@type": "owl:ObjectProperty"
        },
        {
            "@id": "pq:P112",
            "@type": "owl:ObjectProperty"
        },
        {
            "@id": "pr:P112",
            "@type": "owl:ObjectProperty"
        },
        {
            "@id": "wdno:P112",
            "@type": "owl:Class",
            "complementOf": "_:711d012ff79fa4d425ce2171cb8221da"
        },
        {
            "@id": "_:711d012ff79fa4d425ce2171cb8221da",
            "@type": "owl:Restriction",
            "onProperty": "wdt:P112",
            "someValuesFrom": "owl:Thing"
        },
        {
            "@id": "wd:Q194504",
            "@type": "wikibase:Item",
            "label": {
                "@language": "en",
                "@value": "Church of the Nativity"
            },
            "prefLabel": {
                "@language": "en",
                "@value": "Church of the Nativity"
            },
            "name": {
                "@language": "en",
                "@value": "Church of the Nativity"
            },
            "description": {
                "@language": "en",
                "@value": "basilica in Bethlehem"
            }
        },
        {
            "@id": "wd:P138",
            "@type": "wikibase:Property",
            "label": {
                "@language": "en",
                "@value": "named after"
            },
            "prefLabel": {
                "@language": "en",
                "@value": "named after"
            },
            "name": {
                "@language": "en",
                "@value": "named after"
            },
            "description": {
                "@language": "en",
                "@value": "entity or event that inspired the subject's name, or namesake (in at least one language). Qualifier \"applies to name\" (P5168) can be used to indicate which one"
            },
            "propertyType": "http://wikiba.se/ontology#WikibaseItem",
            "directClaim": "wdt:P138",
            "claim": "p:P138",
            "statementProperty": "ps:P138",
            "statementValue": "psv:P138",
            "qualifier": "pq:P138",
            "qualifierValue": "pqv:P138",
            "reference": "pr:P138",
            "referenceValue": "prv:P138",
            "novalue": "wdno:P138"
        },
        {
            "@id": "p:P138",
            "@type": "owl:ObjectProperty"
        },
        {
            "@id": "psv:P138",
            "@type": "owl:ObjectProperty"
        },
        {
            "@id": "pqv:P138",
            "@type": "owl:ObjectProperty"
        },
        {
            "@id": "prv:P138",
            "@type": "owl:ObjectProperty"
        },
        {
            "@id": "wdt:P138",
            "@type": "owl:ObjectProperty"
        },
        {
            "@id": "ps:P138",
            "@type": "owl:ObjectProperty"
        },
        {
            "@id": "pq:P138",
            "@type": "owl:ObjectProperty"
        },
        {
            "@id": "pr:P138",
            "@type": "owl:ObjectProperty"
        },
        {
            "@id": "wdno:P138",
            "@type": "owl:Class",
            "complementOf": "_:e0c4151f3ca560de64568f2e6cd5a11a"
        },
        {
            "@id": "_:e0c4151f3ca560de64568f2e6cd5a11a",
            "@type": "owl:Restriction",
            "onProperty": "wdt:P138",
            "someValuesFrom": "owl:Thing"
        },
        {
            "@id": "wd:P3371",
            "@type": "wikibase:Property",
            "label": {
                "@language": "en",
                "@value": "Observatoire du Patrimoine Religieux ID"
            },
            "prefLabel": {
                "@language": "en",
                "@value": "Observatoire du Patrimoine Religieux ID"
            },
            "name": {
                "@language": "en",
                "@value": "Observatoire du Patrimoine Religieux ID"
            },
            "description": {
                "@language": "en",
                "@value": "ID for religious buildings on the OPR website"
            },
            "propertyType": "http://wikiba.se/ontology#ExternalId",
            "directClaim": "wdt:P3371",
            "claim": "p:P3371",
            "statementProperty": "ps:P3371",
            "statementValue": "psv:P3371",
            "qualifier": "pq:P3371",
            "qualifierValue": "pqv:P3371",
            "reference": "pr:P3371",
            "referenceValue": "prv:P3371",
            "novalue": "wdno:P3371",
            "directClaimNormalized": "wdtn:P3371",
            "statementValueNormalized": "psn:P3371",
            "qualifierValueNormalized": "pqn:P3371",
            "referenceValueNormalized": "prn:P3371"
        },
        {
            "@id": "p:P3371",
            "@type": "owl:ObjectProperty"
        },
        {
            "@id": "psv:P3371",
            "@type": "owl:ObjectProperty"
        },
        {
            "@id": "pqv:P3371",
            "@type": "owl:ObjectProperty"
        },
        {
            "@id": "prv:P3371",
            "@type": "owl:ObjectProperty"
        },
        {
            "@id": "wdt:P3371",
            "@type": "owl:DatatypeProperty"
        },
        {
            "@id": "ps:P3371",
            "@type": "owl:DatatypeProperty"
        },
        {
            "@id": "pq:P3371",
            "@type": "owl:DatatypeProperty"
        },
        {
            "@id": "pr:P3371",
            "@type": "owl:DatatypeProperty"
        },
        {
            "@id": "psn:P3371",
            "@type": "owl:ObjectProperty"
        },
        {
            "@id": "pqn:P3371",
            "@type": "owl:ObjectProperty"
        },
        {
            "@id": "prn:P3371",
            "@type": "owl:ObjectProperty"
        },
        {
            "@id": "wdtn:P3371",
            "@type": "owl:ObjectProperty"
        },
        {
            "@id": "wdno:P3371",
            "@type": "owl:Class",
            "complementOf": "_:acaf74e90cf14e97dc8feb91886933f9"
        },
        {
            "@id": "_:acaf74e90cf14e97dc8feb91886933f9",
            "@type": "owl:Restriction",
            "onProperty": "wdt:P3371",
            "someValuesFrom": "owl:Thing"
        },
        {
            "@id": "wd:P5775",
            "@type": "wikibase:Property",
            "label": {
                "@language": "en",
                "@value": "image of interior"
            },
            "prefLabel": {
                "@language": "en",
                "@value": "image of interior"
            },
            "name": {
                "@language": "en",
                "@value": "image of interior"
            },
            "description": {
                "@language": "en",
                "@value": "image of the inside of an architectural structure, vehicle or other enclosed space"
            },
            "propertyType": "http://wikiba.se/ontology#CommonsMedia",
            "directClaim": "wdt:P5775",
            "claim": "p:P5775",
            "statementProperty": "ps:P5775",
            "statementValue": "psv:P5775",
            "qualifier": "pq:P5775",
            "qualifierValue": "pqv:P5775",
            "reference": "pr:P5775",
            "referenceValue": "prv:P5775",
            "novalue": "wdno:P5775"
        },
        {
            "@id": "p:P5775",
            "@type": "owl:ObjectProperty"
        },
        {
            "@id": "psv:P5775",
            "@type": "owl:ObjectProperty"
        },
        {
            "@id": "pqv:P5775",
            "@type": "owl:ObjectProperty"
        },
        {
            "@id": "prv:P5775",
            "@type": "owl:ObjectProperty"
        },
        {
            "@id": "wdt:P5775",
            "@type": "owl:ObjectProperty"
        },
        {
            "@id": "ps:P5775",
            "@type": "owl:ObjectProperty"
        },
        {
            "@id": "pq:P5775",
            "@type": "owl:ObjectProperty"
        },
        {
            "@id": "pr:P5775",
            "@type": "owl:ObjectProperty"
        },
        {
            "@id": "wdno:P5775",
            "@type": "owl:Class",
            "complementOf": "_:c609cb6ef341572f41f221ed03eb6588"
        },
        {
            "@id": "_:c609cb6ef341572f41f221ed03eb6588",
            "@type": "owl:Restriction",
            "onProperty": "wdt:P5775",
            "someValuesFrom": "owl:Thing"
        },
        {
            "@id": "wd:Q809830",
            "@type": "wikibase:Item",
            "label": {
                "@language": "en",
                "@value": "Base M\u00e9rim\u00e9e"
            },
            "prefLabel": {
                "@language": "en",
                "@value": "Base M\u00e9rim\u00e9e"
            },
            "name": {
                "@language": "en",
                "@value": "Base M\u00e9rim\u00e9e"
            },
            "description": {
                "@language": "en",
                "@value": "French database of monuments"
            }
        },
        {
            "@id": "wd:P248",
            "@type": "wikibase:Property",
            "label": {
                "@language": "en",
                "@value": "stated in"
            },
            "prefLabel": {
                "@language": "en",
                "@value": "stated in"
            },
            "name": {
                "@language": "en",
                "@value": "stated in"
            },
            "description": {
                "@language": "en",
                "@value": "to be used in the references field to refer to the information document or database in which a claim is made; for qualifiers use P805; for the type of document in which a claim is made use P3865"
            },
            "propertyType": "http://wikiba.se/ontology#WikibaseItem",
            "directClaim": "wdt:P248",
            "claim": "p:P248",
            "statementProperty": "ps:P248",
            "statementValue": "psv:P248",
            "qualifier": "pq:P248",
            "qualifierValue": "pqv:P248",
            "reference": "pr:P248",
            "referenceValue": "prv:P248",
            "novalue": "wdno:P248"
        },
        {
            "@id": "p:P248",
            "@type": "owl:ObjectProperty"
        },
        {
            "@id": "psv:P248",
            "@type": "owl:ObjectProperty"
        },
        {
            "@id": "pqv:P248",
            "@type": "owl:ObjectProperty"
        },
        {
            "@id": "prv:P248",
            "@type": "owl:ObjectProperty"
        },
        {
            "@id": "wdt:P248",
            "@type": "owl:ObjectProperty"
        },
        {
            "@id": "ps:P248",
            "@type": "owl:ObjectProperty"
        },
        {
            "@id": "pq:P248",
            "@type": "owl:ObjectProperty"
        },
        {
            "@id": "pr:P248",
            "@type": "owl:ObjectProperty"
        },
        {
            "@id": "wdno:P248",
            "@type": "owl:Class",
            "complementOf": "_:a2b31078afaf5caae811f4ac846f5f35"
        },
        {
            "@id": "_:a2b31078afaf5caae811f4ac846f5f35",
            "@type": "owl:Restriction",
            "onProperty": "wdt:P248",
            "someValuesFrom": "owl:Thing"
        },
        {
            "@id": "wd:Q1008745",
            "@type": "wikibase:Item",
            "label": {
                "@language": "en",
                "@value": "Aubevoye"
            },
            "prefLabel": {
                "@language": "en",
                "@value": "Aubevoye"
            },
            "name": {
                "@language": "en",
                "@value": "Aubevoye"
            },
            "description": {
                "@language": "en",
                "@value": "former commune in Eure, France"
            }
        },
        {
            "@id": "wd:P582",
            "@type": "wikibase:Property",
            "label": {
                "@language": "en",
                "@value": "end time"
            },
            "prefLabel": {
                "@language": "en",
                "@value": "end time"
            },
            "name": {
                "@language": "en",
                "@value": "end time"
            },
            "description": {
                "@language": "en",
                "@value": "time a time period ends"
            },
            "propertyType": "http://wikiba.se/ontology#Time",
            "directClaim": "wdt:P582",
            "claim": "p:P582",
            "statementProperty": "ps:P582",
            "statementValue": "psv:P582",
            "qualifier": "pq:P582",
            "qualifierValue": "pqv:P582",
            "reference": "pr:P582",
            "referenceValue": "prv:P582",
            "novalue": "wdno:P582"
        },
        {
            "@id": "p:P582",
            "@type": "owl:ObjectProperty"
        },
        {
            "@id": "psv:P582",
            "@type": "owl:ObjectProperty"
        },
        {
            "@id": "pqv:P582",
            "@type": "owl:ObjectProperty"
        },
        {
            "@id": "prv:P582",
            "@type": "owl:ObjectProperty"
        },
        {
            "@id": "wdt:P582",
            "@type": "owl:DatatypeProperty"
        },
        {
            "@id": "ps:P582",
            "@type": "owl:DatatypeProperty"
        },
        {
            "@id": "pq:P582",
            "@type": "owl:DatatypeProperty"
        },
        {
            "@id": "pr:P582",
            "@type": "owl:DatatypeProperty"
        },
        {
            "@id": "wdno:P582",
            "@type": "owl:Class",
            "complementOf": "_:e66c426b3b6d50da03204dbba7b68a2b"
        },
        {
            "@id": "_:e66c426b3b6d50da03204dbba7b68a2b",
            "@type": "owl:Restriction",
            "onProperty": "wdt:P582",
            "someValuesFrom": "owl:Thing"
        },
        {
            "@id": "wd:P580",
            "@type": "wikibase:Property",
            "label": {
                "@language": "en",
                "@value": "start time"
            },
            "prefLabel": {
                "@language": "en",
                "@value": "start time"
            },
            "name": {
                "@language": "en",
                "@value": "start time"
            },
            "description": {
                "@language": "en",
                "@value": "time a time period starts"
            },
            "propertyType": "http://wikiba.se/ontology#Time",
            "directClaim": "wdt:P580",
            "claim": "p:P580",
            "statementProperty": "ps:P580",
            "statementValue": "psv:P580",
            "qualifier": "pq:P580",
            "qualifierValue": "pqv:P580",
            "reference": "pr:P580",
            "referenceValue": "prv:P580",
            "novalue": "wdno:P580"
        },
        {
            "@id": "p:P580",
            "@type": "owl:ObjectProperty"
        },
        {
            "@id": "psv:P580",
            "@type": "owl:ObjectProperty"
        },
        {
            "@id": "pqv:P580",
            "@type": "owl:ObjectProperty"
        },
        {
            "@id": "prv:P580",
            "@type": "owl:ObjectProperty"
        },
        {
            "@id": "wdt:P580",
            "@type": "owl:DatatypeProperty"
        },
        {
            "@id": "ps:P580",
            "@type": "owl:DatatypeProperty"
        },
        {
            "@id": "pq:P580",
            "@type": "owl:DatatypeProperty"
        },
        {
            "@id": "pr:P580",
            "@type": "owl:DatatypeProperty"
        },
        {
            "@id": "wdno:P580",
            "@type": "owl:Class",
            "complementOf": "_:a4f53844ef049c00e67a7c9b973324e1"
        },
        {
            "@id": "_:a4f53844ef049c00e67a7c9b973324e1",
            "@type": "owl:Restriction",
            "onProperty": "wdt:P580",
            "someValuesFrom": "owl:Thing"
        },
        {
            "@id": "wd:Q8447",
            "@type": "wikibase:Item",
            "label": {
                "@language": "en",
                "@value": "French Wikipedia"
            },
            "prefLabel": {
                "@language": "en",
                "@value": "French Wikipedia"
            },
            "name": {
                "@language": "en",
                "@value": "French Wikipedia"
            },
            "description": {
                "@language": "en",
                "@value": "French-language edition of Wikipedia"
            }
        },
        {
            "@id": "wd:P143",
            "@type": "wikibase:Property",
            "label": {
                "@language": "en",
                "@value": "imported from Wikimedia project"
            },
            "prefLabel": {
                "@language": "en",
                "@value": "imported from Wikimedia project"
            },
            "name": {
                "@language": "en",
                "@value": "imported from Wikimedia project"
            },
            "description": {
                "@language": "en",
                "@value": "source of this claim's value; used in references section by bots or humans importing data from Wikimedia projects"
            },
            "propertyType": "http://wikiba.se/ontology#WikibaseItem",
            "directClaim": "wdt:P143",
            "claim": "p:P143",
            "statementProperty": "ps:P143",
            "statementValue": "psv:P143",
            "qualifier": "pq:P143",
            "qualifierValue": "pqv:P143",
            "reference": "pr:P143",
            "referenceValue": "prv:P143",
            "novalue": "wdno:P143"
        },
        {
            "@id": "p:P143",
            "@type": "owl:ObjectProperty"
        },
        {
            "@id": "psv:P143",
            "@type": "owl:ObjectProperty"
        },
        {
            "@id": "pqv:P143",
            "@type": "owl:ObjectProperty"
        },
        {
            "@id": "prv:P143",
            "@type": "owl:ObjectProperty"
        },
        {
            "@id": "wdt:P143",
            "@type": "owl:ObjectProperty"
        },
        {
            "@id": "ps:P143",
            "@type": "owl:ObjectProperty"
        },
        {
            "@id": "pq:P143",
            "@type": "owl:ObjectProperty"
        },
        {
            "@id": "pr:P143",
            "@type": "owl:ObjectProperty"
        },
        {
            "@id": "wdno:P143",
            "@type": "owl:Class",
            "complementOf": "_:66a2156e9cbfe8d655274b862fca1b59"
        },
        {
            "@id": "_:66a2156e9cbfe8d655274b862fca1b59",
            "@type": "owl:Restriction",
            "onProperty": "wdt:P143",
            "someValuesFrom": "owl:Thing"
        },
        {
            "@id": "wd:P4656",
            "@type": "wikibase:Property",
            "label": {
                "@language": "en",
                "@value": "Wikimedia import URL"
            },
            "prefLabel": {
                "@language": "en",
                "@value": "Wikimedia import URL"
            },
            "name": {
                "@language": "en",
                "@value": "Wikimedia import URL"
            },
            "description": {
                "@language": "en",
                "@value": "URL of source to indicate the page or revision of an import source from another Wikimedia project (except actual references, such as Wikisource source texts). Use instead of \"reference URL\" (P854). Permalinks are preferred."
            },
            "propertyType": "http://wikiba.se/ontology#Url",
            "directClaim": "wdt:P4656",
            "claim": "p:P4656",
            "statementProperty": "ps:P4656",
            "statementValue": "psv:P4656",
            "qualifier": "pq:P4656",
            "qualifierValue": "pqv:P4656",
            "reference": "pr:P4656",
            "referenceValue": "prv:P4656",
            "novalue": "wdno:P4656"
        },
        {
            "@id": "p:P4656",
            "@type": "owl:ObjectProperty"
        },
        {
            "@id": "psv:P4656",
            "@type": "owl:ObjectProperty"
        },
        {
            "@id": "pqv:P4656",
            "@type": "owl:ObjectProperty"
        },
        {
            "@id": "prv:P4656",
            "@type": "owl:ObjectProperty"
        },
        {
            "@id": "wdt:P4656",
            "@type": "owl:ObjectProperty"
        },
        {
            "@id": "ps:P4656",
            "@type": "owl:ObjectProperty"
        },
        {
            "@id": "pq:P4656",
            "@type": "owl:ObjectProperty"
        },
        {
            "@id": "pr:P4656",
            "@type": "owl:ObjectProperty"
        },
        {
            "@id": "wdno:P4656",
            "@type": "owl:Class",
            "complementOf": "_:d0914856b623ca1dd09b1f31c8eea5fe"
        },
        {
            "@id": "_:d0914856b623ca1dd09b1f31c8eea5fe",
            "@type": "owl:Restriction",
            "onProperty": "wdt:P4656",
            "someValuesFrom": "owl:Thing"
        },
        {
            "@id": "wd:P854",
            "@type": "wikibase:Property",
            "label": {
                "@language": "en",
                "@value": "reference URL"
            },
            "prefLabel": {
                "@language": "en",
                "@value": "reference URL"
            },
            "name": {
                "@language": "en",
                "@value": "reference URL"
            },
            "description": {
                "@language": "en",
                "@value": "should be used for Internet URLs as references. Use \"Wikimedia import URL\" (P4656) for imports from WMF sites"
            },
            "propertyType": "http://wikiba.se/ontology#Url",
            "directClaim": "wdt:P854",
            "claim": "p:P854",
            "statementProperty": "ps:P854",
            "statementValue": "psv:P854",
            "qualifier": "pq:P854",
            "qualifierValue": "pqv:P854",
            "reference": "pr:P854",
            "referenceValue": "prv:P854",
            "novalue": "wdno:P854"
        },
        {
            "@id": "p:P854",
            "@type": "owl:ObjectProperty"
        },
        {
            "@id": "psv:P854",
            "@type": "owl:ObjectProperty"
        },
        {
            "@id": "pqv:P854",
            "@type": "owl:ObjectProperty"
        },
        {
            "@id": "prv:P854",
            "@type": "owl:ObjectProperty"
        },
        {
            "@id": "wdt:P854",
            "@type": "owl:ObjectProperty"
        },
        {
            "@id": "ps:P854",
            "@type": "owl:ObjectProperty"
        },
        {
            "@id": "pq:P854",
            "@type": "owl:ObjectProperty"
        },
        {
            "@id": "pr:P854",
            "@type": "owl:ObjectProperty"
        },
        {
            "@id": "wdno:P854",
            "@type": "owl:Class",
            "complementOf": "_:7317e7e5a3edc1980ecfe7616bb5fa1d"
        },
        {
            "@id": "_:7317e7e5a3edc1980ecfe7616bb5fa1d",
            "@type": "owl:Restriction",
            "onProperty": "wdt:P854",
            "someValuesFrom": "owl:Thing"
        },
        {
            "@id": "wd:P518",
            "@type": "wikibase:Property",
            "label": {
                "@language": "en",
                "@value": "applies to part"
            },
            "prefLabel": {
                "@language": "en",
                "@value": "applies to part"
            },
            "name": {
                "@language": "en",
                "@value": "applies to part"
            },
            "description": {
                "@language": "en",
                "@value": "part, aspect, or form of the item to which the claim applies"
            },
            "propertyType": "http://wikiba.se/ontology#WikibaseItem",
            "directClaim": "wdt:P518",
            "claim": "p:P518",
            "statementProperty": "ps:P518",
            "statementValue": "psv:P518",
            "qualifier": "pq:P518",
            "qualifierValue": "pqv:P518",
            "reference": "pr:P518",
            "referenceValue": "prv:P518",
            "novalue": "wdno:P518"
        },
        {
            "@id": "p:P518",
            "@type": "owl:ObjectProperty"
        },
        {
            "@id": "psv:P518",
            "@type": "owl:ObjectProperty"
        },
        {
            "@id": "pqv:P518",
            "@type": "owl:ObjectProperty"
        },
        {
            "@id": "prv:P518",
            "@type": "owl:ObjectProperty"
        },
        {
            "@id": "wdt:P518",
            "@type": "owl:ObjectProperty"
        },
        {
            "@id": "ps:P518",
            "@type": "owl:ObjectProperty"
        },
        {
            "@id": "pq:P518",
            "@type": "owl:ObjectProperty"
        },
        {
            "@id": "pr:P518",
            "@type": "owl:ObjectProperty"
        },
        {
            "@id": "wdno:P518",
            "@type": "owl:Class",
            "complementOf": "_:09e75a31c8d32be13e36125a65aa1c9b"
        },
        {
            "@id": "_:09e75a31c8d32be13e36125a65aa1c9b",
            "@type": "owl:Restriction",
            "onProperty": "wdt:P518",
            "someValuesFrom": "owl:Thing"
        },
        {
            "@id": "v:d4244113ab870c7c21fbdd148575d992",
            "@type": "wikibase:GlobecoordinateValue",
            "geoLatitude": 49.1747,
            "geoLongitude": 1.3265,
            "geoPrecision": 0.00027777777777778,
            "geoGlobe": "http://www.wikidata.org/entity/Q2"
        },
        {
            "@id": "v:959936cdbc9057ead8b911540e02b646",
            "@type": "wikibase:TimeValue",
            "timeValue": "2015-12-31T00:00:00Z",
            "timePrecision": 11,
            "timeTimezone": 0,
            "timeCalendarModel": "http://www.wikidata.org/entity/Q1985727"
        },
        {
            "@id": "v:87dd190ea9468a16235287e31c520a6f",
            "@type": "wikibase:TimeValue",
            "timeValue": "2016-01-01T00:00:00Z",
            "timePrecision": 11,
            "timeTimezone": 0,
            "timeCalendarModel": "http://www.wikidata.org/entity/Q1985727"
        },
        {
            "@id": "v:a3404febbaa35ad5b9d00f5a2aa00f0d",
            "@type": "wikibase:TimeValue",
            "timeValue": "1576-01-01T00:00:00Z",
            "timePrecision": 9,
            "timeTimezone": 0,
            "timeCalendarModel": "http://www.wikidata.org/entity/Q1985786"
        },
        {
            "@id": "ref:d709174cc609072fbf310bb52ddfb7aa2332b473",
            "@type": "wikibase:Reference",
            "P248": "wd:Q809830"
        },
        {
            "@id": "ref:95133b3ecb4e6cdbc3db2d789359b719b8f179dd",
            "@type": "wikibase:Reference",
            "P143": "wd:Q8447",
            "P4656": "https://fr.wikipedia.org/w/index.php?title=Chapelle_de_Bethl\u00e9em_(Aubevoye)&oldid=150179452"
        },
        {
            "@id": "ref:8694f040823f99f781862b588a92a6c1b4242bbc",
            "@type": "wikibase:Reference",
            "P854": "https://www.pop.culture.gouv.fr/notice/merimee/PA00099312"
        }
    ],
    "@context": {
        "data": "https://www.wikidata.org/wiki/Special:EntityData/",
        "schema": "http://schema.org/",
        "about": {
            "@id": "schema:about",
            "@type": "@id"
        },
        "wd": "http://www.wikidata.org/entity/",
        "cc": "http://creativecommons.org/ns#",
        "license": {
            "@id": "cc:license",
            "@type": "@id"
        },
        "softwareVersion": {
            "@id": "schema:softwareVersion"
        },
        "version": {
            "@id": "schema:version"
        },
        "xsd": "http://www.w3.org/2001/XMLSchema#",
        "dateModified": {
            "@id": "schema:dateModified",
            "@type": "xsd:dateTime"
        },
        "wikibase": "http://wikiba.se/ontology#",
        "statements": {
            "@id": "wikibase:statements"
        },
        "sitelinks": {
            "@id": "wikibase:sitelinks"
        },
        "identifiers": {
            "@id": "wikibase:identifiers"
        },
        "inLanguage": {
            "@id": "schema:inLanguage"
        },
        "isPartOf": {
            "@id": "schema:isPartOf",
            "@type": "@id"
        },
        "name": {
            "@id": "schema:name"
        },
        "wikiGroup": {
            "@id": "wikibase:wikiGroup"
        },
        "wdt": "http://www.wikidata.org/prop/direct/",
        "P17": {
            "@id": "wdt:P17",
            "@type": "@id"
        },
        "P380": {
            "@id": "wdt:P380"
        },
        "geo": "http://www.opengis.net/ont/geosparql#",
        "P625": {
            "@id": "wdt:P625",
            "@type": "geo:wktLiteral"
        },
        "P131": {
            "@id": "wdt:P131",
            "@type": "@id"
        },
        "P31": {
            "@id": "wdt:P31",
            "@type": "@id"
        },
        "P373": {
            "@id": "wdt:P373"
        },
        "P18": {
            "@id": "wdt:P18",
            "@type": "@id"
        },
        "P149": {
            "@id": "wdt:P149",
            "@type": "@id"
        },
        "P6375": {
            "@id": "wdt:P6375"
        },
        "P571": {
            "@id": "wdt:P571",
            "@type": "xsd:dateTime"
        },
        "P2671": {
            "@id": "wdt:P2671"
        },
        "wdtn": "http://www.wikidata.org/prop/direct-normalized/",
        "wdtn:P2671": {
            "@type": "@id"
        },
        "P140": {
            "@id": "wdt:P140",
            "@type": "@id"
        },
        "P5816": {
            "@id": "wdt:P5816",
            "@type": "@id"
        },
        "P527": {
            "@id": "wdt:P527",
            "@type": "@id"
        },
        "P186": {
            "@id": "wdt:P186",
            "@type": "@id"
        },
        "P1435": {
            "@id": "wdt:P1435",
            "@type": "@id"
        },
        "P112": {
            "@id": "wdt:P112",
            "@type": "@id"
        },
        "P138": {
            "@id": "wdt:P138",
            "@type": "@id"
        },
        "P3371": {
            "@id": "wdt:P3371"
        },
        "P5775": {
            "@id": "wdt:P5775",
            "@type": "@id"
        },
        "p": "http://www.wikidata.org/prop/",
        "s": "http://www.wikidata.org/entity/statement/",
        "p:P17": {
            "@type": "@id"
        },
        "rank": {
            "@id": "wikibase:rank",
            "@type": "@id"
        },
        "ps": "http://www.wikidata.org/prop/statement/",
        "ps:P17": {
            "@type": "@id"
        },
        "prov": "http://www.w3.org/ns/prov#",
        "wasDerivedFrom": {
            "@id": "prov:wasDerivedFrom",
            "@type": "@id"
        },
        "ref": "http://www.wikidata.org/reference/",
        "pr": "http://www.wikidata.org/prop/reference/",
        "P248": {
            "@id": "pr:P248",
            "@type": "@id"
        },
        "p:P380": {
            "@type": "@id"
        },
        "p:P625": {
            "@type": "@id"
        },
        "ps:P625": {
            "@type": "geo:wktLiteral"
        },
        "psv": "http://www.wikidata.org/prop/statement/value/",
        "v": "http://www.wikidata.org/value/",
        "psv:P625": {
            "@type": "@id"
        },
        "geoLatitude": {
            "@id": "wikibase:geoLatitude"
        },
        "geoLongitude": {
            "@id": "wikibase:geoLongitude"
        },
        "geoPrecision": {
            "@id": "wikibase:geoPrecision"
        },
        "geoGlobe": {
            "@id": "wikibase:geoGlobe",
            "@type": "@id"
        },
        "p:P131": {
            "@type": "@id"
        },
        "ps:P131": {
            "@type": "@id"
        },
        "pq": "http://www.wikidata.org/prop/qualifier/",
        "P582": {
            "@id": "pq:P582",
            "@type": "xsd:dateTime"
        },
        "pqv": "http://www.wikidata.org/prop/qualifier/value/",
        "pqv:P582": {
            "@type": "@id"
        },
        "timeValue": {
            "@id": "wikibase:timeValue",
            "@type": "xsd:dateTime"
        },
        "timePrecision": {
            "@id": "wikibase:timePrecision"
        },
        "timeTimezone": {
            "@id": "wikibase:timeTimezone"
        },
        "timeCalendarModel": {
            "@id": "wikibase:timeCalendarModel",
            "@type": "@id"
        },
        "P580": {
            "@id": "pq:P580",
            "@type": "xsd:dateTime"
        },
        "pqv:P580": {
            "@type": "@id"
        },
        "p:P31": {
            "@type": "@id"
        },
        "ps:P31": {
            "@type": "@id"
        },
        "p:P373": {
            "@type": "@id"
        },
        "p:P18": {
            "@type": "@id"
        },
        "ps:P18": {
            "@type": "@id"
        },
        "p:P149": {
            "@type": "@id"
        },
        "ps:P149": {
            "@type": "@id"
        },
        "P143": {
            "@id": "pr:P143",
            "@type": "@id"
        },
        "P4656": {
            "@id": "pr:P4656",
            "@type": "@id"
        },
        "p:P6375": {
            "@type": "@id"
        },
        "p:P571": {
            "@type": "@id"
        },
        "ps:P571": {
            "@type": "xsd:dateTime"
        },
        "psv:P571": {
            "@type": "@id"
        },
        "P854": {
            "@id": "pr:P854",
            "@type": "@id"
        },
        "p:P2671": {
            "@type": "@id"
        },
        "psn": "http://www.wikidata.org/prop/statement/value-normalized/",
        "psn:P2671": {
            "@type": "@id"
        },
        "p:P140": {
            "@type": "@id"
        },
        "ps:P140": {
            "@type": "@id"
        },
        "p:P5816": {
            "@type": "@id"
        },
        "ps:P5816": {
            "@type": "@id"
        },
        "p:P527": {
            "@type": "@id"
        },
        "ps:P527": {
            "@type": "@id"
        },
        "p:P186": {
            "@type": "@id"
        },
        "ps:P186": {
            "@type": "@id"
        },
        "p:P1435": {
            "@type": "@id"
        },
        "ps:P1435": {
            "@type": "@id"
        },
        "P518": {
            "@id": "pq:P518",
            "@type": "@id"
        },
        "p:P112": {
            "@type": "@id"
        },
        "ps:P112": {
            "@type": "@id"
        },
        "p:P138": {
            "@type": "@id"
        },
        "ps:P138": {
            "@type": "@id"
        },
        "p:P3371": {
            "@type": "@id"
        },
        "p:P5775": {
            "@type": "@id"
        },
        "ps:P5775": {
            "@type": "@id"
        },
        "rdfs": "http://www.w3.org/2000/01/rdf-schema#",
        "label": {
            "@id": "rdfs:label"
        },
        "skos": "http://www.w3.org/2004/02/skos/core#",
        "prefLabel": {
            "@id": "skos:prefLabel"
        },
        "description": {
            "@id": "schema:description"
        },
        "propertyType": {
            "@id": "wikibase:propertyType",
            "@type": "@id"
        },
        "directClaim": {
            "@id": "wikibase:directClaim",
            "@type": "@id"
        },
        "claim": {
            "@id": "wikibase:claim",
            "@type": "@id"
        },
        "statementProperty": {
            "@id": "wikibase:statementProperty",
            "@type": "@id"
        },
        "statementValue": {
            "@id": "wikibase:statementValue",
            "@type": "@id"
        },
        "qualifier": {
            "@id": "wikibase:qualifier",
            "@type": "@id"
        },
        "qualifierValue": {
            "@id": "wikibase:qualifierValue",
            "@type": "@id"
        },
        "reference": {
            "@id": "wikibase:reference",
            "@type": "@id"
        },
        "referenceValue": {
            "@id": "wikibase:referenceValue",
            "@type": "@id"
        },
        "prv": "http://www.wikidata.org/prop/reference/value/",
        "novalue": {
            "@id": "wikibase:novalue",
            "@type": "@id"
        },
        "wdno": "http://www.wikidata.org/prop/novalue/",
        "owl": "http://www.w3.org/2002/07/owl#",
        "complementOf": {
            "@id": "owl:complementOf",
            "@type": "@id"
        },
        "onProperty": {
            "@id": "owl:onProperty",
            "@type": "@id"
        },
        "someValuesFrom": {
            "@id": "owl:someValuesFrom",
            "@type": "@id"
        },
        "directClaimNormalized": {
            "@id": "wikibase:directClaimNormalized",
            "@type": "@id"
        },
        "statementValueNormalized": {
            "@id": "wikibase:statementValueNormalized",
            "@type": "@id"
        },
        "qualifierValueNormalized": {
            "@id": "wikibase:qualifierValueNormalized",
            "@type": "@id"
        },
        "pqn": "http://www.wikidata.org/prop/qualifier/value-normalized/",
        "referenceValueNormalized": {
            "@id": "wikibase:referenceValueNormalized",
            "@type": "@id"
        },
        "prn": "http://www.wikidata.org/prop/reference/value-normalized/"
    }
}