{
  "entities": {
    "Q1989567": {
      "pageid": 1918220,
      "ns": 0,
      "title": "Q1989567",
      "lastrevid": 1428986539,
      "modified": "2021-05-26T08:29:38Z",
      "type": "item",
      "id": "Q1989567",
      "labels": {
        "fr": {
          "language": "fr",
          "value": "château de Gaillon"
        },
        "en": {
          "language": "en",
          "value": "Château de Gaillon"
        },
        "nl": {
          "language": "nl",
          "value": "Kasteel van Gaillon"
        },
        "it": {
          "language": "it",
          "value": "Château de Gaillon"
        },
        "ru": {
          "language": "ru",
          "value": "Замок Гайон"
        },
        "es": {
          "language": "es",
          "value": "Castillo de Gaillon"
        },
        "az": {
          "language": "az",
          "value": "Qayon qəsri"
        }
      },
      "descriptions": {
        "fr": {
          "language": "fr",
          "value": "château français de la Renaissance situé à Gaillon, Normandie"
        },
        "nl": {
          "language": "nl",
          "value": "kasteel in Gaillon, Frankrijk"
        },
        "he": {
          "language": "he",
          "value": "טירה בצרפת"
        },
        "ar": {
          "language": "ar",
          "value": "قلعة في فرنسا"
        },
        "pt": {
          "language": "pt",
          "value": "castelo em França"
        },
        "de": {
          "language": "de",
          "value": "Burg in Frankreich"
        },
        "en": {
          "language": "en",
          "value": "French Renaissance castle located in Gaillon, Normandy"
        }
      },
      "aliases": {
        "nl": [
          {
            "language": "nl",
            "value": "Chateau de Gaillon"
          },
          {
            "language": "nl",
            "value": "Château de Gaillon"
          }
        ],
        "en": [
          {
            "language": "en",
            "value": "Chateau de Gaillon"
          }
        ],
        "fr": [
          {
            "language": "fr",
            "value": "résidence d'été des évêques de Rouen"
          }
        ]
      },
      "claims": {
        "P17": [
          {
            "mainsnak": {
              "snaktype": "value",
              "property": "P17",
              "hash": "c05db5d169c2560b9799d567a803d20a392f53e4",
              "datavalue": {
                "value": {
                  "entity-type": "item",
                  "numeric-id": 142,
                  "id": "Q142"
                },
                "type": "wikibase-entityid"
              },
              "datatype": "wikibase-item"
            },
            "type": "statement",
            "id": "q1989567$1E881CE0-90F9-4B70-9AB7-869FCDF02CDC",
            "rank": "normal",
            "references": [
              {
                "hash": "d709174cc609072fbf310bb52ddfb7aa2332b473",
                "snaks": {
                  "P248": [
                    {
                      "snaktype": "value",
                      "property": "P248",
                      "hash": "fc376b4e25f8c58fa7210b660e00a66558a3332b",
                      "datavalue": {
                        "value": {
                          "entity-type": "item",
                          "numeric-id": 809830,
                          "id": "Q809830"
                        },
                        "type": "wikibase-entityid"
                      },
                      "datatype": "wikibase-item"
                    }
                  ]
                },
                "snaks-order": [
                  "P248"
                ]
              }
            ]
          }
        ],
        "P18": [
          {
            "mainsnak": {
              "snaktype": "value",
              "property": "P18",
              "hash": "48a573e88a18d294498c375d1a3c04d03edfb9bd",
              "datavalue": {
                "value": "Chateau-de-Gaillon-27.jpg",
                "type": "string"
              },
              "datatype": "commonsMedia"
            },
            "type": "statement",
            "qualifiers": {
              "P2096": [
                {
                  "snaktype": "value",
                  "property": "P2096",
                  "hash": "aff6750ee0512e3b07f3568c00e4850fcc148a29",
                  "datavalue": {
                    "value": {
                      "text": "''Le Châtelet'', en 2008.",
                      "language": "fr"
                    },
                    "type": "monolingualtext"
                  },
                  "datatype": "monolingualtext"
                }
              ]
            },
            "qualifiers-order": [
              "P2096"
            ],
            "id": "q1989567$22E05F26-2245-431A-AC5A-A5806D84F034",
            "rank": "normal"
          }
        ],
        "P373": [
          {
            "mainsnak": {
              "snaktype": "value",
              "property": "P373",
              "hash": "a8951fab6592ae3865f6ed47013e419716445dc7",
              "datavalue": {
                "value": "Château de Gaillon",
                "type": "string"
              },
              "datatype": "string"
            },
            "type": "statement",
            "id": "q1989567$FA064263-6285-4F83-8A70-9FC2F3932A31",
            "rank": "normal"
          }
        ],
        "P31": [
          {
            "mainsnak": {
              "snaktype": "value",
              "property": "P31",
              "hash": "46b80b860a969bc8ec096e7ea119c83e3ed28490",
              "datavalue": {
                "value": {
                  "entity-type": "item",
                  "numeric-id": 751876,
                  "id": "Q751876"
                },
                "type": "wikibase-entityid"
              },
              "datatype": "wikibase-item"
            },
            "type": "statement",
            "id": "Q1989567$EF89E747-23A0-4165-B4F0-DD36413E052F",
            "rank": "normal",
            "references": [
              {
                "hash": "d709174cc609072fbf310bb52ddfb7aa2332b473",
                "snaks": {
                  "P248": [
                    {
                      "snaktype": "value",
                      "property": "P248",
                      "hash": "fc376b4e25f8c58fa7210b660e00a66558a3332b",
                      "datavalue": {
                        "value": {
                          "entity-type": "item",
                          "numeric-id": 809830,
                          "id": "Q809830"
                        },
                        "type": "wikibase-entityid"
                      },
                      "datatype": "wikibase-item"
                    }
                  ]
                },
                "snaks-order": [
                  "P248"
                ]
              }
            ]
          }
        ],
        "P625": [
          {
            "mainsnak": {
              "snaktype": "value",
              "property": "P625",
              "hash": "fe1d91e9ae1ab67c9ac784ea321169d94cf34eee",
              "datavalue": {
                "value": {
                  "latitude": 49.161111111111,
                  "longitude": 1.3297222222222,
                  "altitude": null,
                  "precision": 0.00027777777777778,
                  "globe": "http://www.wikidata.org/entity/Q2"
                },
                "type": "globecoordinate"
              },
              "datatype": "globe-coordinate"
            },
            "type": "statement",
            "id": "q1989567$94961E1E-D533-4640-A44E-51E57FF5C7E9",
            "rank": "normal",
            "references": [
              {
                "hash": "fa278ebfc458360e5aed63d5058cca83c46134f1",
                "snaks": {
                  "P143": [
                    {
                      "snaktype": "value",
                      "property": "P143",
                      "hash": "e4f6d9441d0600513c4533c672b5ab472dc73694",
                      "datavalue": {
                        "value": {
                          "entity-type": "item",
                          "numeric-id": 328,
                          "id": "Q328"
                        },
                        "type": "wikibase-entityid"
                      },
                      "datatype": "wikibase-item"
                    }
                  ]
                },
                "snaks-order": [
                  "P143"
                ]
              }
            ]
          }
        ],
        "P131": [
          {
            "mainsnak": {
              "snaktype": "value",
              "property": "P131",
              "hash": "017fe22d7cbfd47265317e9757fd751e457a24e0",
              "datavalue": {
                "value": {
                  "entity-type": "item",
                  "numeric-id": 627220,
                  "id": "Q627220"
                },
                "type": "wikibase-entityid"
              },
              "datatype": "wikibase-item"
            },
            "type": "statement",
            "id": "Q1989567$5B051F4F-282D-49EC-84E6-FC7E2070741E",
            "rank": "preferred",
            "references": [
              {
                "hash": "d709174cc609072fbf310bb52ddfb7aa2332b473",
                "snaks": {
                  "P248": [
                    {
                      "snaktype": "value",
                      "property": "P248",
                      "hash": "fc376b4e25f8c58fa7210b660e00a66558a3332b",
                      "datavalue": {
                        "value": {
                          "entity-type": "item",
                          "numeric-id": 809830,
                          "id": "Q809830"
                        },
                        "type": "wikibase-entityid"
                      },
                      "datatype": "wikibase-item"
                    }
                  ]
                },
                "snaks-order": [
                  "P248"
                ]
              }
            ]
          },
          {
            "mainsnak": {
              "snaktype": "value",
              "property": "P131",
              "hash": "195b781117e5717ec9715ef492d535a454079b2b",
              "datavalue": {
                "value": {
                  "entity-type": "item",
                  "numeric-id": 1008745,
                  "id": "Q1008745"
                },
                "type": "wikibase-entityid"
              },
              "datatype": "wikibase-item"
            },
            "type": "statement",
            "qualifiers": {
              "P582": [
                {
                  "snaktype": "value",
                  "property": "P582",
                  "hash": "dd073dc6d1e20f0816f8d232df2dd14342f843a2",
                  "datavalue": {
                    "value": {
                      "time": "+2015-12-31T00:00:00Z",
                      "timezone": 0,
                      "before": 0,
                      "after": 0,
                      "precision": 11,
                      "calendarmodel": "http://www.wikidata.org/entity/Q1985727"
                    },
                    "type": "time"
                  },
                  "datatype": "time"
                }
              ]
            },
            "qualifiers-order": [
              "P582"
            ],
            "id": "Q1989567$2B0343F0-A90E-45D2-A7A8-D25BDD18AB27",
            "rank": "normal",
            "references": [
              {
                "hash": "d709174cc609072fbf310bb52ddfb7aa2332b473",
                "snaks": {
                  "P248": [
                    {
                      "snaktype": "value",
                      "property": "P248",
                      "hash": "fc376b4e25f8c58fa7210b660e00a66558a3332b",
                      "datavalue": {
                        "value": {
                          "entity-type": "item",
                          "numeric-id": 809830,
                          "id": "Q809830"
                        },
                        "type": "wikibase-entityid"
                      },
                      "datatype": "wikibase-item"
                    }
                  ]
                },
                "snaks-order": [
                  "P248"
                ]
              }
            ]
          },
          {
            "mainsnak": {
              "snaktype": "value",
              "property": "P131",
              "hash": "98723999c14a517584f5850e8895373c3d93e21a",
              "datavalue": {
                "value": {
                  "entity-type": "item",
                  "numeric-id": 21979856,
                  "id": "Q21979856"
                },
                "type": "wikibase-entityid"
              },
              "datatype": "wikibase-item"
            },
            "type": "statement",
            "qualifiers": {
              "P580": [
                {
                  "snaktype": "value",
                  "property": "P580",
                  "hash": "479dea0ac22f3d69f900dc0bfeb501c69b27e8fa",
                  "datavalue": {
                    "value": {
                      "time": "+2016-01-01T00:00:00Z",
                      "timezone": 0,
                      "before": 0,
                      "after": 0,
                      "precision": 11,
                      "calendarmodel": "http://www.wikidata.org/entity/Q1985727"
                    },
                    "type": "time"
                  },
                  "datatype": "time"
                }
              ]
            },
            "qualifiers-order": [
              "P580"
            ],
            "id": "Q1989567$8B0F7B87-D24B-4066-9895-A4EF6560DBEF",
            "rank": "preferred"
          }
        ],
        "P380": [
          {
            "mainsnak": {
              "snaktype": "value",
              "property": "P380",
              "hash": "1bddcfc0c9dffc40259a2d0442b792f83e18cb22",
              "datavalue": {
                "value": "PA00099427",
                "type": "string"
              },
              "datatype": "external-id"
            },
            "type": "statement",
            "id": "Q1989567$61F64DE9-4479-4B13-9BB9-5EC21BDA4EA1",
            "rank": "normal",
            "references": [
              {
                "hash": "d709174cc609072fbf310bb52ddfb7aa2332b473",
                "snaks": {
                  "P248": [
                    {
                      "snaktype": "value",
                      "property": "P248",
                      "hash": "fc376b4e25f8c58fa7210b660e00a66558a3332b",
                      "datavalue": {
                        "value": {
                          "entity-type": "item",
                          "numeric-id": 809830,
                          "id": "Q809830"
                        },
                        "type": "wikibase-entityid"
                      },
                      "datatype": "wikibase-item"
                    }
                  ]
                },
                "snaks-order": [
                  "P248"
                ]
              }
            ]
          },
          {
            "mainsnak": {
              "snaktype": "value",
              "property": "P380",
              "hash": "d0ba2f3e9419108cf8e880064444189bcb07da2b",
              "datavalue": {
                "value": "PA27000001",
                "type": "string"
              },
              "datatype": "external-id"
            },
            "type": "statement",
            "id": "Q1989567$3E415BD5-8C3B-494A-A551-2D50B1AA9431",
            "rank": "normal",
            "references": [
              {
                "hash": "d709174cc609072fbf310bb52ddfb7aa2332b473",
                "snaks": {
                  "P248": [
                    {
                      "snaktype": "value",
                      "property": "P248",
                      "hash": "fc376b4e25f8c58fa7210b660e00a66558a3332b",
                      "datavalue": {
                        "value": {
                          "entity-type": "item",
                          "numeric-id": 809830,
                          "id": "Q809830"
                        },
                        "type": "wikibase-entityid"
                      },
                      "datatype": "wikibase-item"
                    }
                  ]
                },
                "snaks-order": [
                  "P248"
                ]
              }
            ]
          },
          {
            "mainsnak": {
              "snaktype": "value",
              "property": "P380",
              "hash": "15c2958544995af617ade671282133d3332e46fb",
              "datavalue": {
                "value": "IA00017666",
                "type": "string"
              },
              "datatype": "external-id"
            },
            "type": "statement",
            "id": "Q1989567$D542B905-C4F5-4F31-8917-932B8B7C3E61",
            "rank": "normal",
            "references": [
              {
                "hash": "d709174cc609072fbf310bb52ddfb7aa2332b473",
                "snaks": {
                  "P248": [
                    {
                      "snaktype": "value",
                      "property": "P248",
                      "hash": "fc376b4e25f8c58fa7210b660e00a66558a3332b",
                      "datavalue": {
                        "value": {
                          "entity-type": "item",
                          "numeric-id": 809830,
                          "id": "Q809830"
                        },
                        "type": "wikibase-entityid"
                      },
                      "datatype": "wikibase-item"
                    }
                  ]
                },
                "snaks-order": [
                  "P248"
                ]
              }
            ]
          }
        ],
        "P646": [
          {
            "mainsnak": {
              "snaktype": "value",
              "property": "P646",
              "hash": "f56e8dd5ca5f1397f8ebba9866be33226d222bdc",
              "datavalue": {
                "value": "/m/0fby_j",
                "type": "string"
              },
              "datatype": "external-id"
            },
            "type": "statement",
            "id": "Q1989567$094016F8-05E5-4E05-8EB1-4EE454751383",
            "rank": "normal",
            "references": [
              {
                "hash": "2b00cb481cddcac7623114367489b5c194901c4a",
                "snaks": {
                  "P248": [
                    {
                      "snaktype": "value",
                      "property": "P248",
                      "hash": "a94b740202b097dd33355e0e6c00e54b9395e5e0",
                      "datavalue": {
                        "value": {
                          "entity-type": "item",
                          "numeric-id": 15241312,
                          "id": "Q15241312"
                        },
                        "type": "wikibase-entityid"
                      },
                      "datatype": "wikibase-item"
                    }
                  ],
                  "P577": [
                    {
                      "snaktype": "value",
                      "property": "P577",
                      "hash": "fde79ecb015112d2f29229ccc1ec514ed3e71fa2",
                      "datavalue": {
                        "value": {
                          "time": "+2013-10-28T00:00:00Z",
                          "timezone": 0,
                          "before": 0,
                          "after": 0,
                          "precision": 11,
                          "calendarmodel": "http://www.wikidata.org/entity/Q1985727"
                        },
                        "type": "time"
                      },
                      "datatype": "time"
                    }
                  ]
                },
                "snaks-order": [
                  "P248",
                  "P577"
                ]
              }
            ]
          }
        ],
        "P1435": [
          {
            "mainsnak": {
              "snaktype": "value",
              "property": "P1435",
              "hash": "2a0d37ac7e76d305563257e91e85bb3847f90355",
              "datavalue": {
                "value": {
                  "entity-type": "item",
                  "numeric-id": 10387575,
                  "id": "Q10387575"
                },
                "type": "wikibase-entityid"
              },
              "datatype": "wikibase-item"
            },
            "type": "statement",
            "qualifiers": {
              "P580": [
                {
                  "snaktype": "value",
                  "property": "P580",
                  "hash": "2d36825b7acc4c8677cf614db2710f45b08303e5",
                  "datavalue": {
                    "value": {
                      "time": "+1996-02-08T00:00:00Z",
                      "timezone": 0,
                      "before": 0,
                      "after": 0,
                      "precision": 11,
                      "calendarmodel": "http://www.wikidata.org/entity/Q1985727"
                    },
                    "type": "time"
                  },
                  "datatype": "time"
                }
              ]
            },
            "qualifiers-order": [
              "P580"
            ],
            "id": "Q1989567$B2BF32F7-4483-4C51-A5F0-1EA9EE770596",
            "rank": "normal",
            "references": [
              {
                "hash": "d709174cc609072fbf310bb52ddfb7aa2332b473",
                "snaks": {
                  "P248": [
                    {
                      "snaktype": "value",
                      "property": "P248",
                      "hash": "fc376b4e25f8c58fa7210b660e00a66558a3332b",
                      "datavalue": {
                        "value": {
                          "entity-type": "item",
                          "numeric-id": 809830,
                          "id": "Q809830"
                        },
                        "type": "wikibase-entityid"
                      },
                      "datatype": "wikibase-item"
                    }
                  ]
                },
                "snaks-order": [
                  "P248"
                ]
              }
            ]
          },
          {
            "mainsnak": {
              "snaktype": "value",
              "property": "P1435",
              "hash": "47d4f633ccb039ebb1a08af61dffb908b5e07611",
              "datavalue": {
                "value": {
                  "entity-type": "item",
                  "numeric-id": 10387684,
                  "id": "Q10387684"
                },
                "type": "wikibase-entityid"
              },
              "datatype": "wikibase-item"
            },
            "type": "statement",
            "qualifiers": {
              "P580": [
                {
                  "snaktype": "value",
                  "property": "P580",
                  "hash": "adda58b1ba5b606ee28701a6a2bea9144f123920",
                  "datavalue": {
                    "value": {
                      "time": "+1862-00-00T00:00:00Z",
                      "timezone": 0,
                      "before": 0,
                      "after": 0,
                      "precision": 9,
                      "calendarmodel": "http://www.wikidata.org/entity/Q1985727"
                    },
                    "type": "time"
                  },
                  "datatype": "time"
                }
              ]
            },
            "qualifiers-order": [
              "P580"
            ],
            "id": "Q1989567$2BBB4B65-C4C8-488D-9C17-6ADB26A7CFAB",
            "rank": "normal",
            "references": [
              {
                "hash": "d709174cc609072fbf310bb52ddfb7aa2332b473",
                "snaks": {
                  "P248": [
                    {
                      "snaktype": "value",
                      "property": "P248",
                      "hash": "fc376b4e25f8c58fa7210b660e00a66558a3332b",
                      "datavalue": {
                        "value": {
                          "entity-type": "item",
                          "numeric-id": 809830,
                          "id": "Q809830"
                        },
                        "type": "wikibase-entityid"
                      },
                      "datatype": "wikibase-item"
                    }
                  ]
                },
                "snaks-order": [
                  "P248"
                ]
              }
            ]
          },
          {
            "mainsnak": {
              "snaktype": "value",
              "property": "P1435",
              "hash": "47d4f633ccb039ebb1a08af61dffb908b5e07611",
              "datavalue": {
                "value": {
                  "entity-type": "item",
                  "numeric-id": 10387684,
                  "id": "Q10387684"
                },
                "type": "wikibase-entityid"
              },
              "datatype": "wikibase-item"
            },
            "type": "statement",
            "qualifiers": {
              "P580": [
                {
                  "snaktype": "value",
                  "property": "P580",
                  "hash": "116544e14bfd8df1c478a5b0c99d0db3e3028e59",
                  "datavalue": {
                    "value": {
                      "time": "+1965-09-08T00:00:00Z",
                      "timezone": 0,
                      "before": 0,
                      "after": 0,
                      "precision": 11,
                      "calendarmodel": "http://www.wikidata.org/entity/Q1985727"
                    },
                    "type": "time"
                  },
                  "datatype": "time"
                }
              ]
            },
            "qualifiers-order": [
              "P580"
            ],
            "id": "Q1989567$450F58F1-903D-4FC1-98AD-E130BDED7222",
            "rank": "normal",
            "references": [
              {
                "hash": "d709174cc609072fbf310bb52ddfb7aa2332b473",
                "snaks": {
                  "P248": [
                    {
                      "snaktype": "value",
                      "property": "P248",
                      "hash": "fc376b4e25f8c58fa7210b660e00a66558a3332b",
                      "datavalue": {
                        "value": {
                          "entity-type": "item",
                          "numeric-id": 809830,
                          "id": "Q809830"
                        },
                        "type": "wikibase-entityid"
                      },
                      "datatype": "wikibase-item"
                    }
                  ]
                },
                "snaks-order": [
                  "P248"
                ]
              }
            ]
          }
        ],
        "P1566": [
          {
            "mainsnak": {
              "snaktype": "value",
              "property": "P1566",
              "hash": "741c896439dee32ee36b85e2beb746c7b16f6c0c",
              "datavalue": {
                "value": "6453893",
                "type": "string"
              },
              "datatype": "external-id"
            },
            "type": "statement",
            "id": "Q1989567$69C7C2B2-83B9-488F-BC96-A3BF7BC4B0EF",
            "rank": "normal",
            "references": [
              {
                "hash": "88694a0f4d1486770c269f7db16a1982f74da69d",
                "snaks": {
                  "P248": [
                    {
                      "snaktype": "value",
                      "property": "P248",
                      "hash": "1b3ef912a2bd61e18dd43abd184337eb010b2e96",
                      "datavalue": {
                        "value": {
                          "entity-type": "item",
                          "numeric-id": 830106,
                          "id": "Q830106"
                        },
                        "type": "wikibase-entityid"
                      },
                      "datatype": "wikibase-item"
                    }
                  ]
                },
                "snaks-order": [
                  "P248"
                ]
              }
            ]
          }
        ],
        "P149": [
          {
            "mainsnak": {
              "snaktype": "value",
              "property": "P149",
              "hash": "5497b258c33cfd14ab1aa6035c7afcc2f8a0d4ac",
              "datavalue": {
                "value": {
                  "entity-type": "item",
                  "numeric-id": 236122,
                  "id": "Q236122"
                },
                "type": "wikibase-entityid"
              },
              "datatype": "wikibase-item"
            },
            "type": "statement",
            "id": "Q1989567$A3C9973F-FAF1-4495-AAAE-6C5DAECDAFA8",
            "rank": "normal",
            "references": [
              {
                "hash": "d4bd87b862b12d99d26e86472d44f26858dee639",
                "snaks": {
                  "P143": [
                    {
                      "snaktype": "value",
                      "property": "P143",
                      "hash": "f30cbd35620c4ea6d0633aaf0210a8916130469b",
                      "datavalue": {
                        "value": {
                          "entity-type": "item",
                          "numeric-id": 8447,
                          "id": "Q8447"
                        },
                        "type": "wikibase-entityid"
                      },
                      "datatype": "wikibase-item"
                    }
                  ]
                },
                "snaks-order": [
                  "P143"
                ]
              }
            ]
          }
        ],
        "P1705": [
          {
            "mainsnak": {
              "snaktype": "value",
              "property": "P1705",
              "hash": "05b7c30f085ea70a9007877e686a044f61bb4f96",
              "datavalue": {
                "value": {
                  "text": "Château de Gaillon",
                  "language": "fr"
                },
                "type": "monolingualtext"
              },
              "datatype": "monolingualtext"
            },
            "type": "statement",
            "id": "Q1989567$e466d918-429c-fa8e-5d73-936fc01dff18",
            "rank": "normal",
            "references": [
              {
                "hash": "288ab581e7d2d02995a26dfa8b091d96e78457fc",
                "snaks": {
                  "P143": [
                    {
                      "snaktype": "value",
                      "property": "P143",
                      "hash": "6a164248fc96bfa583bbb495cb63ae6401ec203c",
                      "datavalue": {
                        "value": {
                          "entity-type": "item",
                          "numeric-id": 206855,
                          "id": "Q206855"
                        },
                        "type": "wikibase-entityid"
                      },
                      "datatype": "wikibase-item"
                    }
                  ]
                },
                "snaks-order": [
                  "P143"
                ]
              }
            ]
          }
        ],
        "P6766": [
          {
            "mainsnak": {
              "snaktype": "value",
              "property": "P6766",
              "hash": "a4bbe0fc436090950c6a579ba74228bc5500e473",
              "datavalue": {
                "value": "404408625",
                "type": "string"
              },
              "datatype": "external-id"
            },
            "type": "statement",
            "id": "Q1989567$35B575A2-A007-4B94-9172-7DEFE3C320A6",
            "rank": "normal"
          }
        ],
        "P6375": [
          {
            "mainsnak": {
              "snaktype": "value",
              "property": "P6375",
              "hash": "0fdda56e81ff1efd4b915eec14c6167f3cecc34e",
              "datavalue": {
                "value": {
                  "text": "allée du Château",
                  "language": "fr"
                },
                "type": "monolingualtext"
              },
              "datatype": "monolingualtext"
            },
            "type": "statement",
            "id": "Q1989567$B0CC2C06-9BCE-4045-91F2-1CFF7CEB4589",
            "rank": "normal"
          },
          {
            "mainsnak": {
              "snaktype": "value",
              "property": "P6375",
              "hash": "6a8a3d336258caea33f3ec98503e42948cb8e216",
              "datavalue": {
                "value": {
                  "text": "allée de l'Ermitage",
                  "language": "fr"
                },
                "type": "monolingualtext"
              },
              "datatype": "monolingualtext"
            },
            "type": "statement",
            "id": "Q1989567$4CAA0A05-8E2D-4EB7-A58C-494A0B8F50A4",
            "rank": "normal"
          },
          {
            "mainsnak": {
              "snaktype": "value",
              "property": "P6375",
              "hash": "274a5821a08a0afe1365a892bca0a48d591c0344",
              "datavalue": {
                "value": {
                  "text": "partie nord des Jardins de Bas",
                  "language": "fr"
                },
                "type": "monolingualtext"
              },
              "datatype": "monolingualtext"
            },
            "type": "statement",
            "id": "Q1989567$5e0aa836-4343-4888-8005-ea6b29df1650",
            "rank": "normal"
          }
        ],
        "P214": [
          {
            "mainsnak": {
              "snaktype": "value",
              "property": "P214",
              "hash": "a0341d6bb1eea757ad13f27e8fc78d0ec2fb88f3",
              "datavalue": {
                "value": "242287349",
                "type": "string"
              },
              "datatype": "external-id"
            },
            "type": "statement",
            "id": "Q1989567$7B4141A9-C4F2-4B44-B22F-BBEDC3621B80",
            "rank": "normal"
          }
        ],
        "P571": [
          {
            "mainsnak": {
              "snaktype": "value",
              "property": "P571",
              "hash": "352c77d628f28043fd507c4c7e885d01ede5c203",
              "datavalue": {
                "value": {
                  "time": "+1453-00-00T00:00:00Z",
                  "timezone": 0,
                  "before": 0,
                  "after": 0,
                  "precision": 9,
                  "calendarmodel": "http://www.wikidata.org/entity/Q1985786"
                },
                "type": "time"
              },
              "datatype": "time"
            },
            "type": "statement",
            "qualifiers": {
              "P518": [
                {
                  "snaktype": "value",
                  "property": "P518",
                  "hash": "68eea94a14ee1840e72d54ecb81c68868afbf76a",
                  "datavalue": {
                    "value": {
                      "entity-type": "item",
                      "numeric-id": 751876,
                      "id": "Q751876"
                    },
                    "type": "wikibase-entityid"
                  },
                  "datatype": "wikibase-item"
                }
              ]
            },
            "qualifiers-order": [
              "P518"
            ],
            "id": "Q1989567$9cd035f4-4a9f-31ec-0a34-15b4d144fab3",
            "rank": "normal"
          },
          {
            "mainsnak": {
              "snaktype": "value",
              "property": "P571",
              "hash": "e55a6a5505770616d56b2ffb3b4cbfd7e08f2fe8",
              "datavalue": {
                "value": {
                  "time": "+1192-00-00T00:00:00Z",
                  "timezone": 0,
                  "before": 0,
                  "after": 0,
                  "precision": 9,
                  "calendarmodel": "http://www.wikidata.org/entity/Q1985786"
                },
                "type": "time"
              },
              "datatype": "time"
            },
            "type": "statement",
            "qualifiers": {
              "P518": [
                {
                  "snaktype": "value",
                  "property": "P518",
                  "hash": "7eb2d2adccc40b8cfffb57685d492773099ae168",
                  "datavalue": {
                    "value": {
                      "entity-type": "item",
                      "numeric-id": 23413,
                      "id": "Q23413"
                    },
                    "type": "wikibase-entityid"
                  },
                  "datatype": "wikibase-item"
                }
              ]
            },
            "qualifiers-order": [
              "P518"
            ],
            "id": "Q1989567$d0afc70e-4e26-ab29-0912-fe30311890f4",
            "rank": "normal"
          }
        ],
        "P88": [
          {
            "mainsnak": {
              "snaktype": "value",
              "property": "P88",
              "hash": "0c8fb6ba7bc84ef77a303a90c5dbc1f1d870ab8b",
              "datavalue": {
                "value": {
                  "entity-type": "item",
                  "numeric-id": 656131,
                  "id": "Q656131"
                },
                "type": "wikibase-entityid"
              },
              "datatype": "wikibase-item"
            },
            "type": "statement",
            "qualifiers": {
              "P585": [
                {
                  "snaktype": "value",
                  "property": "P585",
                  "hash": "7c2ca759a0397d43ad9e5e657ecbf1432f240c9b",
                  "datavalue": {
                    "value": {
                      "time": "+1453-00-00T00:00:00Z",
                      "timezone": 0,
                      "before": 0,
                      "after": 0,
                      "precision": 9,
                      "calendarmodel": "http://www.wikidata.org/entity/Q1985786"
                    },
                    "type": "time"
                  },
                  "datatype": "time"
                }
              ]
            },
            "qualifiers-order": [
              "P585"
            ],
            "id": "Q1989567$6d3f19c3-49e5-6068-f4ac-fcffafd3b00a",
            "rank": "normal"
          }
        ],
        "P466": [
          {
            "mainsnak": {
              "snaktype": "value",
              "property": "P466",
              "hash": "9275a0691ec31d7ee86697de26d465e4879f16a0",
              "datavalue": {
                "value": {
                  "entity-type": "item",
                  "numeric-id": 3120374,
                  "id": "Q3120374"
                },
                "type": "wikibase-entityid"
              },
              "datatype": "wikibase-item"
            },
            "type": "statement",
            "qualifiers": {
              "P585": [
                {
                  "snaktype": "value",
                  "property": "P585",
                  "hash": "2834ba74fec0a3f67a2fe05cabf5f72c878b0cb1",
                  "datavalue": {
                    "value": {
                      "time": "+1389-00-00T00:00:00Z",
                      "timezone": 0,
                      "before": 0,
                      "after": 0,
                      "precision": 9,
                      "calendarmodel": "http://www.wikidata.org/entity/Q1985786"
                    },
                    "type": "time"
                  },
                  "datatype": "time"
                }
              ]
            },
            "qualifiers-order": [
              "P585"
            ],
            "id": "Q1989567$78a415d8-459d-d85f-2025-010ca4aff661",
            "rank": "normal"
          }
        ],
        "P127": [
          {
            "mainsnak": {
              "snaktype": "value",
              "property": "P127",
              "hash": "69bba26bf546affc9865ffd99eca40a02f75782d",
              "datavalue": {
                "value": {
                  "entity-type": "item",
                  "numeric-id": 70972,
                  "id": "Q70972"
                },
                "type": "wikibase-entityid"
              },
              "datatype": "wikibase-item"
            },
            "type": "statement",
            "qualifiers": {
              "P580": [
                {
                  "snaktype": "value",
                  "property": "P580",
                  "hash": "c21aa635c6d1a83aee3da14485eafb82e70b08e6",
                  "datavalue": {
                    "value": {
                      "time": "+1192-00-00T00:00:00Z",
                      "timezone": 0,
                      "before": 0,
                      "after": 0,
                      "precision": 9,
                      "calendarmodel": "http://www.wikidata.org/entity/Q1985786"
                    },
                    "type": "time"
                  },
                  "datatype": "time"
                }
              ],
              "P582": [
                {
                  "snaktype": "value",
                  "property": "P582",
                  "hash": "73a6b55d5a54ab12637c67f81bacec07fb721faf",
                  "datavalue": {
                    "value": {
                      "time": "+1262-00-00T00:00:00Z",
                      "timezone": 0,
                      "before": 0,
                      "after": 0,
                      "precision": 9,
                      "calendarmodel": "http://www.wikidata.org/entity/Q1985786"
                    },
                    "type": "time"
                  },
                  "datatype": "time"
                }
              ]
            },
            "qualifiers-order": [
              "P580",
              "P582"
            ],
            "id": "Q1989567$8fb494f2-4d4e-c319-2b5c-8e36048bd20d",
            "rank": "normal"
          },
          {
            "mainsnak": {
              "snaktype": "value",
              "property": "P127",
              "hash": "a4cfb28c0c9ace4b3fe9499409098a6e2be02f0f",
              "datavalue": {
                "value": {
                  "entity-type": "item",
                  "numeric-id": 27096903,
                  "id": "Q27096903"
                },
                "type": "wikibase-entityid"
              },
              "datatype": "wikibase-item"
            },
            "type": "statement",
            "qualifiers": {
              "P580": [
                {
                  "snaktype": "value",
                  "property": "P580",
                  "hash": "885b50a4c29a08d4fc10a57b79d6212be139f0e8",
                  "datavalue": {
                    "value": {
                      "time": "+1262-00-00T00:00:00Z",
                      "timezone": 0,
                      "before": 0,
                      "after": 0,
                      "precision": 9,
                      "calendarmodel": "http://www.wikidata.org/entity/Q1985786"
                    },
                    "type": "time"
                  },
                  "datatype": "time"
                }
              ],
              "P582": [
                {
                  "snaktype": "value",
                  "property": "P582",
                  "hash": "d7986fa93cd7eb2a6c51897278fbe64aaab4fe64",
                  "datavalue": {
                    "value": {
                      "time": "+1789-00-00T00:00:00Z",
                      "timezone": 0,
                      "before": 0,
                      "after": 0,
                      "precision": 9,
                      "calendarmodel": "http://www.wikidata.org/entity/Q1985727"
                    },
                    "type": "time"
                  },
                  "datatype": "time"
                }
              ]
            },
            "qualifiers-order": [
              "P580",
              "P582"
            ],
            "id": "Q1989567$c5a16f38-461d-4a77-f4b1-bea9c8ca8b41",
            "rank": "normal"
          },
          {
            "mainsnak": {
              "snaktype": "value",
              "property": "P127",
              "hash": "c99534093f968cf380ad948e52eedcf5f6fe34cb",
              "datavalue": {
                "value": {
                  "entity-type": "item",
                  "numeric-id": 142,
                  "id": "Q142"
                },
                "type": "wikibase-entityid"
              },
              "datatype": "wikibase-item"
            },
            "type": "statement",
            "qualifiers": {
              "P580": [
                {
                  "snaktype": "value",
                  "property": "P580",
                  "hash": "aafd31c588e04f5fb2554f2d79f515d8dce776b4",
                  "datavalue": {
                    "value": {
                      "time": "+1804-00-00T00:00:00Z",
                      "timezone": 0,
                      "before": 0,
                      "after": 0,
                      "precision": 9,
                      "calendarmodel": "http://www.wikidata.org/entity/Q1985727"
                    },
                    "type": "time"
                  },
                  "datatype": "time"
                }
              ]
            },
            "qualifiers-order": [
              "P580"
            ],
            "id": "Q1989567$e6c8c2f3-487f-99ce-7e88-7fd8577876ad",
            "rank": "normal"
          }
        ],
        "P268": [
          {
            "mainsnak": {
              "snaktype": "value",
              "property": "P268",
              "hash": "83ba7052aa7bf80cb109317bfd0d3d55287e2633",
              "datavalue": {
                "value": "14415634s",
                "type": "string"
              },
              "datatype": "external-id"
            },
            "type": "statement",
            "id": "Q1989567$2a415f3c-4a61-0073-b0f8-a28c8ad411f3",
            "rank": "normal"
          }
        ],
        "P7859": [
          {
            "mainsnak": {
              "snaktype": "value",
              "property": "P7859",
              "hash": "879a039bc084eb1258063be6a286fb06050d9d07",
              "datavalue": {
                "value": "viaf-242287349",
                "type": "string"
              },
              "datatype": "external-id"
            },
            "type": "statement",
            "id": "Q1989567$69EF435F-9328-4218-BC52-57180520A772",
            "rank": "normal",
            "references": [
              {
                "hash": "ab9ef558ebff1483903490162c41658762664723",
                "snaks": {
                  "P214": [
                    {
                      "snaktype": "value",
                      "property": "P214",
                      "hash": "a0341d6bb1eea757ad13f27e8fc78d0ec2fb88f3",
                      "datavalue": {
                        "value": "242287349",
                        "type": "string"
                      },
                      "datatype": "external-id"
                    }
                  ]
                },
                "snaks-order": [
                  "P214"
                ]
              }
            ]
          }
        ],
        "P527": [
          {
            "mainsnak": {
              "snaktype": "value",
              "property": "P527",
              "hash": "e64e5255ebdb80090c304d6ba3fdf6cf34971eea",
              "datavalue": {
                "value": {
                  "entity-type": "item",
                  "numeric-id": 60342463,
                  "id": "Q60342463"
                },
                "type": "wikibase-entityid"
              },
              "datatype": "wikibase-item"
            },
            "type": "statement",
            "id": "Q1989567$e694d124-41e2-77c2-0bbf-90f734c3d7a3",
            "rank": "normal"
          }
        ],
        "P8406": [
          {
            "mainsnak": {
              "snaktype": "value",
              "property": "P8406",
              "hash": "21614b77462001bea40885fadcd13fa0b3fc8810",
              "datavalue": {
                "value": "T030412",
                "type": "string"
              },
              "datatype": "external-id"
            },
            "type": "statement",
            "id": "Q1989567$2746BB99-8B1A-4FCE-9739-84421945DD30",
            "rank": "normal"
          }
        ],
        "P2013": [
          {
            "mainsnak": {
              "snaktype": "value",
              "property": "P2013",
              "hash": "76c12e0fe4a829f4586f55dc42f36b3db3570fa0",
              "datavalue": {
                "value": "chateau.gaillon",
                "type": "string"
              },
              "datatype": "external-id"
            },
            "type": "statement",
            "id": "Q1989567$34af1ade-401f-b593-6f91-056d5f7bfeb3",
            "rank": "normal"
          }
        ],
        "P856": [
          {
            "mainsnak": {
              "snaktype": "value",
              "property": "P856",
              "hash": "8d6617f5356a38abf0832c096eb73e01ab7ecf42",
              "datavalue": {
                "value": "http://www.arc-gaillon.fr/index.php?",
                "type": "string"
              },
              "datatype": "url"
            },
            "type": "statement",
            "id": "Q1989567$268470e4-4983-c0b6-64f2-246146fbd53c",
            "rank": "normal"
          }
        ]
      },
      "sitelinks": {
        "azwiki": {
          "site": "azwiki",
          "title": "Qayon qəsri",
          "badges": [],
          "url": "https://az.wikipedia.org/wiki/Qayon_q%C9%99sri"
        },
        "commonswiki": {
          "site": "commonswiki",
          "title": "Category:Château de Gaillon",
          "badges": [],
          "url": "https://commons.wikimedia.org/wiki/Category:Ch%C3%A2teau_de_Gaillon"
        },
        "enwiki": {
          "site": "enwiki",
          "title": "Château de Gaillon",
          "badges": [],
          "url": "https://en.wikipedia.org/wiki/Ch%C3%A2teau_de_Gaillon"
        },
        "eswiki": {
          "site": "eswiki",
          "title": "Castillo de Gaillon",
          "badges": [],
          "url": "https://es.wikipedia.org/wiki/Castillo_de_Gaillon"
        },
        "frwiki": {
          "site": "frwiki",
          "title": "Château de Gaillon",
          "badges": [],
          "url": "https://fr.wikipedia.org/wiki/Ch%C3%A2teau_de_Gaillon"
        },
        "itwiki": {
          "site": "itwiki",
          "title": "Castello di Gaillon",
          "badges": [],
          "url": "https://it.wikipedia.org/wiki/Castello_di_Gaillon"
        },
        "nlwiki": {
          "site": "nlwiki",
          "title": "Kasteel van Gaillon",
          "badges": [],
          "url": "https://nl.wikipedia.org/wiki/Kasteel_van_Gaillon"
        },
        "ruwiki": {
          "site": "ruwiki",
          "title": "Замок Гайон",
          "badges": [],
          "url": "https://ru.wikipedia.org/wiki/%D0%97%D0%B0%D0%BC%D0%BE%D0%BA_%D0%93%D0%B0%D0%B9%D0%BE%D0%BD"
        }
      }
    }
  }
}
